(['C:\\Users\\JuanCarlosCruz\\Desktop\\Programs\\firefox-profile-refresher-gui\\profile_reset_gui.py'],
 ['C:\\Users\\JuanCarlosCruz\\Desktop\\Programs\\firefox-profile-refresher-gui'],
 ['codecs'],
 ['C:\\Users\\JuanCarlosCruz\\AppData\\Roaming\\Python\\Python311\\site-packages\\numpy\\_pyinstaller',
  'C:\\Users\\JuanCarlosCruz\\AppData\\Roaming\\Python\\Python311\\site-packages\\_pyinstaller_hooks_contrib\\hooks\\stdhooks',
  'C:\\Users\\JuanCarlosCruz\\AppData\\Roaming\\Python\\Python311\\site-packages\\_pyinstaller_hooks_contrib\\hooks\\stdhooks\\__pycache__',
  'C:\\Users\\JuanCarlosCruz\\AppData\\Roaming\\Python\\Python311\\site-packages\\_pyinstaller_hooks_contrib\\hooks\\rthooks',
  'C:\\Users\\JuanCarlosCruz\\AppData\\Roaming\\Python\\Python311\\site-packages\\_pyinstaller_hooks_contrib\\hooks\\rthooks\\__pycache__',
  'C:\\Users\\JuanCarlosCruz\\AppData\\Roaming\\Python\\Python311\\site-packages\\_pyinstaller_hooks_contrib\\hooks'],
 {},
 [],
 [],
 False,
 False,
 False,
 {},
 [],
 [],
 '3.11.4 (tags/v3.11.4:d2340ef, Jun  7 2023, 05:45:37) [MSC v.1934 64 bit '
 '(AMD64)]',
 [('pyi_rth_inspect',
   'C:\\Users\\JuanCarlosCruz\\AppData\\Roaming\\Python\\Python311\\site-packages\\PyInstaller\\hooks\\rthooks\\pyi_rth_inspect.py',
   'PYSOURCE'),
  ('pyi_rth_pyqt5',
   'C:\\Users\\JuanCarlosCruz\\AppData\\Roaming\\Python\\Python311\\site-packages\\PyInstaller\\hooks\\rthooks\\pyi_rth_pyqt5.py',
   'PYSOURCE'),
  ('pyi_rth_pkgutil',
   'C:\\Users\\JuanCarlosCruz\\AppData\\Roaming\\Python\\Python311\\site-packages\\PyInstaller\\hooks\\rthooks\\pyi_rth_pkgutil.py',
   'PYSOURCE'),
  ('profile_reset_gui',
   'C:\\Users\\JuanCarlosCruz\\Desktop\\Programs\\firefox-profile-refresher-gui\\profile_reset_gui.py',
   'PYSOURCE')],
 [('pkgutil', 'C:\\Program Files\\Python311\\Lib\\pkgutil.py', 'PYMODULE'),
  ('zipimport', 'C:\\Program Files\\Python311\\Lib\\zipimport.py', 'PYMODULE'),
  ('importlib.readers',
   'C:\\Program Files\\Python311\\Lib\\importlib\\readers.py',
   'PYMODULE'),
  ('importlib.resources.readers',
   'C:\\Program Files\\Python311\\Lib\\importlib\\resources\\readers.py',
   'PYMODULE'),
  ('importlib.resources._itertools',
   'C:\\Program Files\\Python311\\Lib\\importlib\\resources\\_itertools.py',
   'PYMODULE'),
  ('typing', 'C:\\Program Files\\Python311\\Lib\\typing.py', 'PYMODULE'),
  ('contextlib',
   'C:\\Program Files\\Python311\\Lib\\contextlib.py',
   'PYMODULE'),
  ('importlib.resources.abc',
   'C:\\Program Files\\Python311\\Lib\\importlib\\resources\\abc.py',
   'PYMODULE'),
  ('importlib.resources',
   'C:\\Program Files\\Python311\\Lib\\importlib\\resources\\__init__.py',
   'PYMODULE'),
  ('importlib.resources._legacy',
   'C:\\Program Files\\Python311\\Lib\\importlib\\resources\\_legacy.py',
   'PYMODULE'),
  ('importlib.resources._common',
   'C:\\Program Files\\Python311\\Lib\\importlib\\resources\\_common.py',
   'PYMODULE'),
  ('importlib.resources._adapters',
   'C:\\Program Files\\Python311\\Lib\\importlib\\resources\\_adapters.py',
   'PYMODULE'),
  ('tempfile', 'C:\\Program Files\\Python311\\Lib\\tempfile.py', 'PYMODULE'),
  ('random', 'C:\\Program Files\\Python311\\Lib\\random.py', 'PYMODULE'),
  ('statistics',
   'C:\\Program Files\\Python311\\Lib\\statistics.py',
   'PYMODULE'),
  ('decimal', 'C:\\Program Files\\Python311\\Lib\\decimal.py', 'PYMODULE'),
  ('_pydecimal',
   'C:\\Program Files\\Python311\\Lib\\_pydecimal.py',
   'PYMODULE'),
  ('contextvars',
   'C:\\Program Files\\Python311\\Lib\\contextvars.py',
   'PYMODULE'),
  ('fractions', 'C:\\Program Files\\Python311\\Lib\\fractions.py', 'PYMODULE'),
  ('numbers', 'C:\\Program Files\\Python311\\Lib\\numbers.py', 'PYMODULE'),
  ('hashlib', 'C:\\Program Files\\Python311\\Lib\\hashlib.py', 'PYMODULE'),
  ('logging',
   'C:\\Program Files\\Python311\\Lib\\logging\\__init__.py',
   'PYMODULE'),
  ('pickle', 'C:\\Program Files\\Python311\\Lib\\pickle.py', 'PYMODULE'),
  ('pprint', 'C:\\Program Files\\Python311\\Lib\\pprint.py', 'PYMODULE'),
  ('dataclasses',
   'C:\\Program Files\\Python311\\Lib\\dataclasses.py',
   'PYMODULE'),
  ('copy', 'C:\\Program Files\\Python311\\Lib\\copy.py', 'PYMODULE'),
  ('_compat_pickle',
   'C:\\Program Files\\Python311\\Lib\\_compat_pickle.py',
   'PYMODULE'),
  ('struct', 'C:\\Program Files\\Python311\\Lib\\struct.py', 'PYMODULE'),
  ('threading', 'C:\\Program Files\\Python311\\Lib\\threading.py', 'PYMODULE'),
  ('_threading_local',
   'C:\\Program Files\\Python311\\Lib\\_threading_local.py',
   'PYMODULE'),
  ('string', 'C:\\Program Files\\Python311\\Lib\\string.py', 'PYMODULE'),
  ('bisect', 'C:\\Program Files\\Python311\\Lib\\bisect.py', 'PYMODULE'),
  ('zipfile', 'C:\\Program Files\\Python311\\Lib\\zipfile.py', 'PYMODULE'),
  ('argparse', 'C:\\Program Files\\Python311\\Lib\\argparse.py', 'PYMODULE'),
  ('textwrap', 'C:\\Program Files\\Python311\\Lib\\textwrap.py', 'PYMODULE'),
  ('gettext', 'C:\\Program Files\\Python311\\Lib\\gettext.py', 'PYMODULE'),
  ('py_compile',
   'C:\\Program Files\\Python311\\Lib\\py_compile.py',
   'PYMODULE'),
  ('importlib._bootstrap_external',
   'C:\\Program Files\\Python311\\Lib\\importlib\\_bootstrap_external.py',
   'PYMODULE'),
  ('importlib.metadata',
   'C:\\Program Files\\Python311\\Lib\\importlib\\metadata\\__init__.py',
   'PYMODULE'),
  ('importlib.abc',
   'C:\\Program Files\\Python311\\Lib\\importlib\\abc.py',
   'PYMODULE'),
  ('importlib._abc',
   'C:\\Program Files\\Python311\\Lib\\importlib\\_abc.py',
   'PYMODULE'),
  ('importlib._bootstrap',
   'C:\\Program Files\\Python311\\Lib\\importlib\\_bootstrap.py',
   'PYMODULE'),
  ('importlib.metadata._itertools',
   'C:\\Program Files\\Python311\\Lib\\importlib\\metadata\\_itertools.py',
   'PYMODULE'),
  ('importlib.metadata._functools',
   'C:\\Program Files\\Python311\\Lib\\importlib\\metadata\\_functools.py',
   'PYMODULE'),
  ('importlib.metadata._collections',
   'C:\\Program Files\\Python311\\Lib\\importlib\\metadata\\_collections.py',
   'PYMODULE'),
  ('importlib.metadata._meta',
   'C:\\Program Files\\Python311\\Lib\\importlib\\metadata\\_meta.py',
   'PYMODULE'),
  ('importlib.metadata._adapters',
   'C:\\Program Files\\Python311\\Lib\\importlib\\metadata\\_adapters.py',
   'PYMODULE'),
  ('importlib.metadata._text',
   'C:\\Program Files\\Python311\\Lib\\importlib\\metadata\\_text.py',
   'PYMODULE'),
  ('email.message',
   'C:\\Program Files\\Python311\\Lib\\email\\message.py',
   'PYMODULE'),
  ('email.policy',
   'C:\\Program Files\\Python311\\Lib\\email\\policy.py',
   'PYMODULE'),
  ('email.contentmanager',
   'C:\\Program Files\\Python311\\Lib\\email\\contentmanager.py',
   'PYMODULE'),
  ('email.quoprimime',
   'C:\\Program Files\\Python311\\Lib\\email\\quoprimime.py',
   'PYMODULE'),
  ('email.headerregistry',
   'C:\\Program Files\\Python311\\Lib\\email\\headerregistry.py',
   'PYMODULE'),
  ('email._header_value_parser',
   'C:\\Program Files\\Python311\\Lib\\email\\_header_value_parser.py',
   'PYMODULE'),
  ('email.iterators',
   'C:\\Program Files\\Python311\\Lib\\email\\iterators.py',
   'PYMODULE'),
  ('email.generator',
   'C:\\Program Files\\Python311\\Lib\\email\\generator.py',
   'PYMODULE'),
  ('email._encoded_words',
   'C:\\Program Files\\Python311\\Lib\\email\\_encoded_words.py',
   'PYMODULE'),
  ('base64', 'C:\\Program Files\\Python311\\Lib\\base64.py', 'PYMODULE'),
  ('getopt', 'C:\\Program Files\\Python311\\Lib\\getopt.py', 'PYMODULE'),
  ('email.charset',
   'C:\\Program Files\\Python311\\Lib\\email\\charset.py',
   'PYMODULE'),
  ('email.encoders',
   'C:\\Program Files\\Python311\\Lib\\email\\encoders.py',
   'PYMODULE'),
  ('email.base64mime',
   'C:\\Program Files\\Python311\\Lib\\email\\base64mime.py',
   'PYMODULE'),
  ('email._policybase',
   'C:\\Program Files\\Python311\\Lib\\email\\_policybase.py',
   'PYMODULE'),
  ('email.header',
   'C:\\Program Files\\Python311\\Lib\\email\\header.py',
   'PYMODULE'),
  ('email.errors',
   'C:\\Program Files\\Python311\\Lib\\email\\errors.py',
   'PYMODULE'),
  ('email.utils',
   'C:\\Program Files\\Python311\\Lib\\email\\utils.py',
   'PYMODULE'),
  ('email._parseaddr',
   'C:\\Program Files\\Python311\\Lib\\email\\_parseaddr.py',
   'PYMODULE'),
  ('calendar', 'C:\\Program Files\\Python311\\Lib\\calendar.py', 'PYMODULE'),
  ('datetime', 'C:\\Program Files\\Python311\\Lib\\datetime.py', 'PYMODULE'),
  ('_strptime', 'C:\\Program Files\\Python311\\Lib\\_strptime.py', 'PYMODULE'),
  ('socket', 'C:\\Program Files\\Python311\\Lib\\socket.py', 'PYMODULE'),
  ('selectors', 'C:\\Program Files\\Python311\\Lib\\selectors.py', 'PYMODULE'),
  ('quopri', 'C:\\Program Files\\Python311\\Lib\\quopri.py', 'PYMODULE'),
  ('email',
   'C:\\Program Files\\Python311\\Lib\\email\\__init__.py',
   'PYMODULE'),
  ('email.parser',
   'C:\\Program Files\\Python311\\Lib\\email\\parser.py',
   'PYMODULE'),
  ('email.feedparser',
   'C:\\Program Files\\Python311\\Lib\\email\\feedparser.py',
   'PYMODULE'),
  ('csv', 'C:\\Program Files\\Python311\\Lib\\csv.py', 'PYMODULE'),
  ('lzma', 'C:\\Program Files\\Python311\\Lib\\lzma.py', 'PYMODULE'),
  ('_compression',
   'C:\\Program Files\\Python311\\Lib\\_compression.py',
   'PYMODULE'),
  ('bz2', 'C:\\Program Files\\Python311\\Lib\\bz2.py', 'PYMODULE'),
  ('inspect', 'C:\\Program Files\\Python311\\Lib\\inspect.py', 'PYMODULE'),
  ('dis', 'C:\\Program Files\\Python311\\Lib\\dis.py', 'PYMODULE'),
  ('opcode', 'C:\\Program Files\\Python311\\Lib\\opcode.py', 'PYMODULE'),
  ('ast', 'C:\\Program Files\\Python311\\Lib\\ast.py', 'PYMODULE'),
  ('importlib.machinery',
   'C:\\Program Files\\Python311\\Lib\\importlib\\machinery.py',
   'PYMODULE'),
  ('importlib.util',
   'C:\\Program Files\\Python311\\Lib\\importlib\\util.py',
   'PYMODULE'),
  ('importlib',
   'C:\\Program Files\\Python311\\Lib\\importlib\\__init__.py',
   'PYMODULE'),
  ('getpass', 'C:\\Program Files\\Python311\\Lib\\getpass.py', 'PYMODULE'),
  ('nturl2path',
   'C:\\Program Files\\Python311\\Lib\\nturl2path.py',
   'PYMODULE'),
  ('ftplib', 'C:\\Program Files\\Python311\\Lib\\ftplib.py', 'PYMODULE'),
  ('netrc', 'C:\\Program Files\\Python311\\Lib\\netrc.py', 'PYMODULE'),
  ('shlex', 'C:\\Program Files\\Python311\\Lib\\shlex.py', 'PYMODULE'),
  ('mimetypes', 'C:\\Program Files\\Python311\\Lib\\mimetypes.py', 'PYMODULE'),
  ('http.cookiejar',
   'C:\\Program Files\\Python311\\Lib\\http\\cookiejar.py',
   'PYMODULE'),
  ('http', 'C:\\Program Files\\Python311\\Lib\\http\\__init__.py', 'PYMODULE'),
  ('ssl', 'C:\\Program Files\\Python311\\Lib\\ssl.py', 'PYMODULE'),
  ('http.client',
   'C:\\Program Files\\Python311\\Lib\\http\\client.py',
   'PYMODULE'),
  ('tracemalloc',
   'C:\\Program Files\\Python311\\Lib\\tracemalloc.py',
   'PYMODULE'),
  ('stringprep',
   'C:\\Program Files\\Python311\\Lib\\stringprep.py',
   'PYMODULE'),
  ('_py_abc', 'C:\\Program Files\\Python311\\Lib\\_py_abc.py', 'PYMODULE'),
  ('PyQt5',
   'C:\\Users\\JuanCarlosCruz\\AppData\\Roaming\\Python\\Python311\\site-packages\\PyQt5\\__init__.py',
   'PYMODULE'),
  ('shutil', 'C:\\Program Files\\Python311\\Lib\\shutil.py', 'PYMODULE'),
  ('tarfile', 'C:\\Program Files\\Python311\\Lib\\tarfile.py', 'PYMODULE'),
  ('gzip', 'C:\\Program Files\\Python311\\Lib\\gzip.py', 'PYMODULE'),
  ('subprocess',
   'C:\\Program Files\\Python311\\Lib\\subprocess.py',
   'PYMODULE'),
  ('signal', 'C:\\Program Files\\Python311\\Lib\\signal.py', 'PYMODULE')],
 [('python311.dll', 'C:\\Program Files\\Python311\\python311.dll', 'BINARY'),
  ('api-ms-win-crt-math-l1-1-0.dll',
   'C:\\Program Files\\VisualSVN Server\\bin\\api-ms-win-crt-math-l1-1-0.dll',
   'BINARY'),
  ('VCRUNTIME140.dll',
   'C:\\Program Files\\Python311\\VCRUNTIME140.dll',
   'BINARY'),
  ('api-ms-win-crt-runtime-l1-1-0.dll',
   'C:\\Program Files\\VisualSVN '
   'Server\\bin\\api-ms-win-crt-runtime-l1-1-0.dll',
   'BINARY'),
  ('api-ms-win-crt-locale-l1-1-0.dll',
   'C:\\Program Files\\VisualSVN Server\\bin\\api-ms-win-crt-locale-l1-1-0.dll',
   'BINARY'),
  ('api-ms-win-crt-stdio-l1-1-0.dll',
   'C:\\Program Files\\VisualSVN Server\\bin\\api-ms-win-crt-stdio-l1-1-0.dll',
   'BINARY'),
  ('api-ms-win-crt-heap-l1-1-0.dll',
   'C:\\Program Files\\VisualSVN Server\\bin\\api-ms-win-crt-heap-l1-1-0.dll',
   'BINARY'),
  ('api-ms-win-crt-time-l1-1-0.dll',
   'C:\\Program Files\\VisualSVN Server\\bin\\api-ms-win-crt-time-l1-1-0.dll',
   'BINARY'),
  ('api-ms-win-crt-conio-l1-1-0.dll',
   'C:\\Program Files\\VisualSVN Server\\bin\\api-ms-win-crt-conio-l1-1-0.dll',
   'BINARY'),
  ('api-ms-win-crt-environment-l1-1-0.dll',
   'C:\\Program Files\\VisualSVN '
   'Server\\bin\\api-ms-win-crt-environment-l1-1-0.dll',
   'BINARY'),
  ('api-ms-win-crt-filesystem-l1-1-0.dll',
   'C:\\Program Files\\VisualSVN '
   'Server\\bin\\api-ms-win-crt-filesystem-l1-1-0.dll',
   'BINARY'),
  ('api-ms-win-crt-string-l1-1-0.dll',
   'C:\\Program Files\\VisualSVN Server\\bin\\api-ms-win-crt-string-l1-1-0.dll',
   'BINARY'),
  ('api-ms-win-crt-convert-l1-1-0.dll',
   'C:\\Program Files\\VisualSVN '
   'Server\\bin\\api-ms-win-crt-convert-l1-1-0.dll',
   'BINARY'),
  ('api-ms-win-crt-process-l1-1-0.dll',
   'C:\\Program Files\\VisualSVN '
   'Server\\bin\\api-ms-win-crt-process-l1-1-0.dll',
   'BINARY'),
  ('ucrtbase.dll',
   'C:\\Program Files\\VisualSVN Server\\bin\\ucrtbase.dll',
   'BINARY'),
  ('PyQt5\\Qt5\\plugins\\imageformats\\qtiff.dll',
   'C:\\Users\\JuanCarlosCruz\\AppData\\Roaming\\Python\\Python311\\site-packages\\PyQt5\\Qt5\\plugins\\imageformats\\qtiff.dll',
   'BINARY'),
  ('PyQt5\\Qt5\\plugins\\imageformats\\qico.dll',
   'C:\\Users\\JuanCarlosCruz\\AppData\\Roaming\\Python\\Python311\\site-packages\\PyQt5\\Qt5\\plugins\\imageformats\\qico.dll',
   'BINARY'),
  ('PyQt5\\Qt5\\bin\\opengl32sw.dll',
   'C:\\Users\\JuanCarlosCruz\\AppData\\Roaming\\Python\\Python311\\site-packages\\PyQt5\\Qt5\\bin\\opengl32sw.dll',
   'BINARY'),
  ('PyQt5\\Qt5\\plugins\\platformthemes\\qxdgdesktopportal.dll',
   'C:\\Users\\JuanCarlosCruz\\AppData\\Roaming\\Python\\Python311\\site-packages\\PyQt5\\Qt5\\plugins\\platformthemes\\qxdgdesktopportal.dll',
   'BINARY'),
  ('PyQt5\\Qt5\\bin\\libEGL.dll',
   'C:\\Users\\JuanCarlosCruz\\AppData\\Roaming\\Python\\Python311\\site-packages\\PyQt5\\Qt5\\bin\\libEGL.dll',
   'BINARY'),
  ('PyQt5\\Qt5\\plugins\\imageformats\\qgif.dll',
   'C:\\Users\\JuanCarlosCruz\\AppData\\Roaming\\Python\\Python311\\site-packages\\PyQt5\\Qt5\\plugins\\imageformats\\qgif.dll',
   'BINARY'),
  ('PyQt5\\Qt5\\plugins\\iconengines\\qsvgicon.dll',
   'C:\\Users\\JuanCarlosCruz\\AppData\\Roaming\\Python\\Python311\\site-packages\\PyQt5\\Qt5\\plugins\\iconengines\\qsvgicon.dll',
   'BINARY'),
  ('PyQt5\\Qt5\\plugins\\platforms\\qminimal.dll',
   'C:\\Users\\JuanCarlosCruz\\AppData\\Roaming\\Python\\Python311\\site-packages\\PyQt5\\Qt5\\plugins\\platforms\\qminimal.dll',
   'BINARY'),
  ('PyQt5\\Qt5\\plugins\\imageformats\\qjpeg.dll',
   'C:\\Users\\JuanCarlosCruz\\AppData\\Roaming\\Python\\Python311\\site-packages\\PyQt5\\Qt5\\plugins\\imageformats\\qjpeg.dll',
   'BINARY'),
  ('PyQt5\\Qt5\\plugins\\imageformats\\qtga.dll',
   'C:\\Users\\JuanCarlosCruz\\AppData\\Roaming\\Python\\Python311\\site-packages\\PyQt5\\Qt5\\plugins\\imageformats\\qtga.dll',
   'BINARY'),
  ('PyQt5\\Qt5\\bin\\d3dcompiler_47.dll',
   'C:\\Users\\JuanCarlosCruz\\AppData\\Roaming\\Python\\Python311\\site-packages\\PyQt5\\Qt5\\bin\\d3dcompiler_47.dll',
   'BINARY'),
  ('PyQt5\\Qt5\\plugins\\imageformats\\qsvg.dll',
   'C:\\Users\\JuanCarlosCruz\\AppData\\Roaming\\Python\\Python311\\site-packages\\PyQt5\\Qt5\\plugins\\imageformats\\qsvg.dll',
   'BINARY'),
  ('PyQt5\\Qt5\\plugins\\platforms\\qwebgl.dll',
   'C:\\Users\\JuanCarlosCruz\\AppData\\Roaming\\Python\\Python311\\site-packages\\PyQt5\\Qt5\\plugins\\platforms\\qwebgl.dll',
   'BINARY'),
  ('PyQt5\\Qt5\\bin\\libGLESv2.dll',
   'C:\\Users\\JuanCarlosCruz\\AppData\\Roaming\\Python\\Python311\\site-packages\\PyQt5\\Qt5\\bin\\libGLESv2.dll',
   'BINARY'),
  ('PyQt5\\Qt5\\plugins\\platforms\\qoffscreen.dll',
   'C:\\Users\\JuanCarlosCruz\\AppData\\Roaming\\Python\\Python311\\site-packages\\PyQt5\\Qt5\\plugins\\platforms\\qoffscreen.dll',
   'BINARY'),
  ('PyQt5\\Qt5\\plugins\\generic\\qtuiotouchplugin.dll',
   'C:\\Users\\JuanCarlosCruz\\AppData\\Roaming\\Python\\Python311\\site-packages\\PyQt5\\Qt5\\plugins\\generic\\qtuiotouchplugin.dll',
   'BINARY'),
  ('PyQt5\\Qt5\\plugins\\styles\\qwindowsvistastyle.dll',
   'C:\\Users\\JuanCarlosCruz\\AppData\\Roaming\\Python\\Python311\\site-packages\\PyQt5\\Qt5\\plugins\\styles\\qwindowsvistastyle.dll',
   'BINARY'),
  ('PyQt5\\Qt5\\plugins\\platforms\\qwindows.dll',
   'C:\\Users\\JuanCarlosCruz\\AppData\\Roaming\\Python\\Python311\\site-packages\\PyQt5\\Qt5\\plugins\\platforms\\qwindows.dll',
   'BINARY'),
  ('PyQt5\\Qt5\\plugins\\imageformats\\qwebp.dll',
   'C:\\Users\\JuanCarlosCruz\\AppData\\Roaming\\Python\\Python311\\site-packages\\PyQt5\\Qt5\\plugins\\imageformats\\qwebp.dll',
   'BINARY'),
  ('PyQt5\\Qt5\\plugins\\imageformats\\qwbmp.dll',
   'C:\\Users\\JuanCarlosCruz\\AppData\\Roaming\\Python\\Python311\\site-packages\\PyQt5\\Qt5\\plugins\\imageformats\\qwbmp.dll',
   'BINARY'),
  ('PyQt5\\Qt5\\plugins\\imageformats\\qicns.dll',
   'C:\\Users\\JuanCarlosCruz\\AppData\\Roaming\\Python\\Python311\\site-packages\\PyQt5\\Qt5\\plugins\\imageformats\\qicns.dll',
   'BINARY'),
  ('_decimal.pyd',
   'C:\\Program Files\\Python311\\DLLs\\_decimal.pyd',
   'EXTENSION'),
  ('_hashlib.pyd',
   'C:\\Program Files\\Python311\\DLLs\\_hashlib.pyd',
   'EXTENSION'),
  ('select.pyd', 'C:\\Program Files\\Python311\\DLLs\\select.pyd', 'EXTENSION'),
  ('_socket.pyd',
   'C:\\Program Files\\Python311\\DLLs\\_socket.pyd',
   'EXTENSION'),
  ('_lzma.pyd', 'C:\\Program Files\\Python311\\DLLs\\_lzma.pyd', 'EXTENSION'),
  ('_bz2.pyd', 'C:\\Program Files\\Python311\\DLLs\\_bz2.pyd', 'EXTENSION'),
  ('_ssl.pyd', 'C:\\Program Files\\Python311\\DLLs\\_ssl.pyd', 'EXTENSION'),
  ('unicodedata.pyd',
   'C:\\Program Files\\Python311\\DLLs\\unicodedata.pyd',
   'EXTENSION'),
  ('PyQt5\\QtCore.pyd',
   'C:\\Users\\JuanCarlosCruz\\AppData\\Roaming\\Python\\Python311\\site-packages\\PyQt5\\QtCore.pyd',
   'EXTENSION'),
  ('PyQt5\\sip.cp311-win_amd64.pyd',
   'C:\\Users\\JuanCarlosCruz\\AppData\\Roaming\\Python\\Python311\\site-packages\\PyQt5\\sip.cp311-win_amd64.pyd',
   'EXTENSION'),
  ('PyQt5\\QtWidgets.pyd',
   'C:\\Users\\JuanCarlosCruz\\AppData\\Roaming\\Python\\Python311\\site-packages\\PyQt5\\QtWidgets.pyd',
   'EXTENSION'),
  ('PyQt5\\QtGui.pyd',
   'C:\\Users\\JuanCarlosCruz\\AppData\\Roaming\\Python\\Python311\\site-packages\\PyQt5\\QtGui.pyd',
   'EXTENSION'),
  ('PyQt5\\Qt5\\bin\\Qt5Gui.dll',
   'C:\\Users\\JuanCarlosCruz\\AppData\\Roaming\\Python\\Python311\\site-packages\\PyQt5\\Qt5\\bin\\Qt5Gui.dll',
   'BINARY'),
  ('PyQt5\\Qt5\\bin\\Qt5Core.dll',
   'C:\\Users\\JuanCarlosCruz\\AppData\\Roaming\\Python\\Python311\\site-packages\\PyQt5\\Qt5\\bin\\Qt5Core.dll',
   'BINARY'),
  ('api-ms-win-crt-utility-l1-1-0.dll',
   'C:\\Program Files\\VisualSVN '
   'Server\\bin\\api-ms-win-crt-utility-l1-1-0.dll',
   'BINARY'),
  ('PyQt5\\Qt5\\bin\\Qt5DBus.dll',
   'C:\\Users\\JuanCarlosCruz\\AppData\\Roaming\\Python\\Python311\\site-packages\\PyQt5\\Qt5\\bin\\Qt5DBus.dll',
   'BINARY'),
  ('PyQt5\\Qt5\\bin\\Qt5Svg.dll',
   'C:\\Users\\JuanCarlosCruz\\AppData\\Roaming\\Python\\Python311\\site-packages\\PyQt5\\Qt5\\bin\\Qt5Svg.dll',
   'BINARY'),
  ('PyQt5\\Qt5\\bin\\Qt5Quick.dll',
   'C:\\Users\\JuanCarlosCruz\\AppData\\Roaming\\Python\\Python311\\site-packages\\PyQt5\\Qt5\\bin\\Qt5Quick.dll',
   'BINARY'),
  ('PyQt5\\Qt5\\bin\\MSVCP140.dll',
   'C:\\Users\\JuanCarlosCruz\\AppData\\Roaming\\Python\\Python311\\site-packages\\PyQt5\\Qt5\\bin\\MSVCP140.dll',
   'BINARY'),
  ('PyQt5\\Qt5\\bin\\Qt5WebSockets.dll',
   'C:\\Users\\JuanCarlosCruz\\AppData\\Roaming\\Python\\Python311\\site-packages\\PyQt5\\Qt5\\bin\\Qt5WebSockets.dll',
   'BINARY'),
  ('PyQt5\\Qt5\\bin\\Qt5Network.dll',
   'C:\\Users\\JuanCarlosCruz\\AppData\\Roaming\\Python\\Python311\\site-packages\\PyQt5\\Qt5\\bin\\Qt5Network.dll',
   'BINARY'),
  ('PyQt5\\Qt5\\bin\\VCRUNTIME140_1.dll',
   'C:\\Users\\JuanCarlosCruz\\AppData\\Roaming\\Python\\Python311\\site-packages\\PyQt5\\Qt5\\bin\\VCRUNTIME140_1.dll',
   'BINARY'),
  ('PyQt5\\Qt5\\bin\\Qt5Widgets.dll',
   'C:\\Users\\JuanCarlosCruz\\AppData\\Roaming\\Python\\Python311\\site-packages\\PyQt5\\Qt5\\bin\\Qt5Widgets.dll',
   'BINARY'),
  ('VCRUNTIME140_1.dll',
   'C:\\Program Files\\Python311\\VCRUNTIME140_1.dll',
   'BINARY'),
  ('libcrypto-1_1.dll',
   'C:\\Program Files\\Python311\\DLLs\\libcrypto-1_1.dll',
   'BINARY'),
  ('libssl-1_1.dll',
   'C:\\Program Files\\Python311\\DLLs\\libssl-1_1.dll',
   'BINARY'),
  ('python3.dll', 'C:\\Program Files\\Python311\\python3.dll', 'BINARY'),
  ('PyQt5\\Qt5\\bin\\MSVCP140_1.dll',
   'C:\\Users\\JuanCarlosCruz\\AppData\\Roaming\\Python\\Python311\\site-packages\\PyQt5\\Qt5\\bin\\MSVCP140_1.dll',
   'BINARY'),
  ('PyQt5\\Qt5\\bin\\Qt5QmlModels.dll',
   'C:\\Users\\JuanCarlosCruz\\AppData\\Roaming\\Python\\Python311\\site-packages\\PyQt5\\Qt5\\bin\\Qt5QmlModels.dll',
   'BINARY'),
  ('PyQt5\\Qt5\\bin\\Qt5Qml.dll',
   'C:\\Users\\JuanCarlosCruz\\AppData\\Roaming\\Python\\Python311\\site-packages\\PyQt5\\Qt5\\bin\\Qt5Qml.dll',
   'BINARY')],
 [],
 [],
 [('base_library.zip',
   'C:\\Users\\JuanCarlosCruz\\Desktop\\Programs\\firefox-profile-refresher-gui\\build\\profile_reset_gui\\base_library.zip',
   'DATA'),
  ('PyQt5\\Qt5\\translations\\qt_pl.qm',
   'C:\\Users\\JuanCarlosCruz\\AppData\\Roaming\\Python\\Python311\\site-packages\\PyQt5\\Qt5\\translations\\qt_pl.qm',
   'DATA'),
  ('PyQt5\\Qt5\\translations\\qt_help_cs.qm',
   'C:\\Users\\JuanCarlosCruz\\AppData\\Roaming\\Python\\Python311\\site-packages\\PyQt5\\Qt5\\translations\\qt_help_cs.qm',
   'DATA'),
  ('PyQt5\\Qt5\\translations\\qt_help_tr.qm',
   'C:\\Users\\JuanCarlosCruz\\AppData\\Roaming\\Python\\Python311\\site-packages\\PyQt5\\Qt5\\translations\\qt_help_tr.qm',
   'DATA'),
  ('PyQt5\\Qt5\\translations\\qtbase_da.qm',
   'C:\\Users\\JuanCarlosCruz\\AppData\\Roaming\\Python\\Python311\\site-packages\\PyQt5\\Qt5\\translations\\qtbase_da.qm',
   'DATA'),
  ('PyQt5\\Qt5\\translations\\qt_help_ar.qm',
   'C:\\Users\\JuanCarlosCruz\\AppData\\Roaming\\Python\\Python311\\site-packages\\PyQt5\\Qt5\\translations\\qt_help_ar.qm',
   'DATA'),
  ('PyQt5\\Qt5\\translations\\qt_hu.qm',
   'C:\\Users\\JuanCarlosCruz\\AppData\\Roaming\\Python\\Python311\\site-packages\\PyQt5\\Qt5\\translations\\qt_hu.qm',
   'DATA'),
  ('PyQt5\\Qt5\\translations\\qt_cs.qm',
   'C:\\Users\\JuanCarlosCruz\\AppData\\Roaming\\Python\\Python311\\site-packages\\PyQt5\\Qt5\\translations\\qt_cs.qm',
   'DATA'),
  ('PyQt5\\Qt5\\translations\\qtbase_it.qm',
   'C:\\Users\\JuanCarlosCruz\\AppData\\Roaming\\Python\\Python311\\site-packages\\PyQt5\\Qt5\\translations\\qtbase_it.qm',
   'DATA'),
  ('PyQt5\\Qt5\\translations\\qt_help_de.qm',
   'C:\\Users\\JuanCarlosCruz\\AppData\\Roaming\\Python\\Python311\\site-packages\\PyQt5\\Qt5\\translations\\qt_help_de.qm',
   'DATA'),
  ('PyQt5\\Qt5\\translations\\qtbase_ar.qm',
   'C:\\Users\\JuanCarlosCruz\\AppData\\Roaming\\Python\\Python311\\site-packages\\PyQt5\\Qt5\\translations\\qtbase_ar.qm',
   'DATA'),
  ('PyQt5\\Qt5\\translations\\qt_help_uk.qm',
   'C:\\Users\\JuanCarlosCruz\\AppData\\Roaming\\Python\\Python311\\site-packages\\PyQt5\\Qt5\\translations\\qt_help_uk.qm',
   'DATA'),
  ('PyQt5\\Qt5\\translations\\qt_help_ja.qm',
   'C:\\Users\\JuanCarlosCruz\\AppData\\Roaming\\Python\\Python311\\site-packages\\PyQt5\\Qt5\\translations\\qt_help_ja.qm',
   'DATA'),
  ('PyQt5\\Qt5\\translations\\qt_bg.qm',
   'C:\\Users\\JuanCarlosCruz\\AppData\\Roaming\\Python\\Python311\\site-packages\\PyQt5\\Qt5\\translations\\qt_bg.qm',
   'DATA'),
  ('PyQt5\\Qt5\\translations\\qtbase_ru.qm',
   'C:\\Users\\JuanCarlosCruz\\AppData\\Roaming\\Python\\Python311\\site-packages\\PyQt5\\Qt5\\translations\\qtbase_ru.qm',
   'DATA'),
  ('PyQt5\\Qt5\\translations\\qt_ca.qm',
   'C:\\Users\\JuanCarlosCruz\\AppData\\Roaming\\Python\\Python311\\site-packages\\PyQt5\\Qt5\\translations\\qt_ca.qm',
   'DATA'),
  ('PyQt5\\Qt5\\translations\\qtbase_fi.qm',
   'C:\\Users\\JuanCarlosCruz\\AppData\\Roaming\\Python\\Python311\\site-packages\\PyQt5\\Qt5\\translations\\qtbase_fi.qm',
   'DATA'),
  ('PyQt5\\Qt5\\translations\\qt_zh_TW.qm',
   'C:\\Users\\JuanCarlosCruz\\AppData\\Roaming\\Python\\Python311\\site-packages\\PyQt5\\Qt5\\translations\\qt_zh_TW.qm',
   'DATA'),
  ('PyQt5\\Qt5\\translations\\qt_fr.qm',
   'C:\\Users\\JuanCarlosCruz\\AppData\\Roaming\\Python\\Python311\\site-packages\\PyQt5\\Qt5\\translations\\qt_fr.qm',
   'DATA'),
  ('PyQt5\\Qt5\\translations\\qt_help_it.qm',
   'C:\\Users\\JuanCarlosCruz\\AppData\\Roaming\\Python\\Python311\\site-packages\\PyQt5\\Qt5\\translations\\qt_help_it.qm',
   'DATA'),
  ('PyQt5\\Qt5\\translations\\qt_sl.qm',
   'C:\\Users\\JuanCarlosCruz\\AppData\\Roaming\\Python\\Python311\\site-packages\\PyQt5\\Qt5\\translations\\qt_sl.qm',
   'DATA'),
  ('PyQt5\\Qt5\\translations\\qt_fa.qm',
   'C:\\Users\\JuanCarlosCruz\\AppData\\Roaming\\Python\\Python311\\site-packages\\PyQt5\\Qt5\\translations\\qt_fa.qm',
   'DATA'),
  ('PyQt5\\Qt5\\translations\\qt_help_ru.qm',
   'C:\\Users\\JuanCarlosCruz\\AppData\\Roaming\\Python\\Python311\\site-packages\\PyQt5\\Qt5\\translations\\qt_help_ru.qm',
   'DATA'),
  ('PyQt5\\Qt5\\translations\\qtbase_hu.qm',
   'C:\\Users\\JuanCarlosCruz\\AppData\\Roaming\\Python\\Python311\\site-packages\\PyQt5\\Qt5\\translations\\qtbase_hu.qm',
   'DATA'),
  ('PyQt5\\Qt5\\translations\\qt_ko.qm',
   'C:\\Users\\JuanCarlosCruz\\AppData\\Roaming\\Python\\Python311\\site-packages\\PyQt5\\Qt5\\translations\\qt_ko.qm',
   'DATA'),
  ('PyQt5\\Qt5\\translations\\qtbase_es.qm',
   'C:\\Users\\JuanCarlosCruz\\AppData\\Roaming\\Python\\Python311\\site-packages\\PyQt5\\Qt5\\translations\\qtbase_es.qm',
   'DATA'),
  ('PyQt5\\Qt5\\translations\\qt_ar.qm',
   'C:\\Users\\JuanCarlosCruz\\AppData\\Roaming\\Python\\Python311\\site-packages\\PyQt5\\Qt5\\translations\\qt_ar.qm',
   'DATA'),
  ('PyQt5\\Qt5\\translations\\qt_help_es.qm',
   'C:\\Users\\JuanCarlosCruz\\AppData\\Roaming\\Python\\Python311\\site-packages\\PyQt5\\Qt5\\translations\\qt_help_es.qm',
   'DATA'),
  ('PyQt5\\Qt5\\translations\\qt_pt.qm',
   'C:\\Users\\JuanCarlosCruz\\AppData\\Roaming\\Python\\Python311\\site-packages\\PyQt5\\Qt5\\translations\\qt_pt.qm',
   'DATA'),
  ('PyQt5\\Qt5\\translations\\qtbase_tr.qm',
   'C:\\Users\\JuanCarlosCruz\\AppData\\Roaming\\Python\\Python311\\site-packages\\PyQt5\\Qt5\\translations\\qtbase_tr.qm',
   'DATA'),
  ('PyQt5\\Qt5\\translations\\qt_help_ko.qm',
   'C:\\Users\\JuanCarlosCruz\\AppData\\Roaming\\Python\\Python311\\site-packages\\PyQt5\\Qt5\\translations\\qt_help_ko.qm',
   'DATA'),
  ('PyQt5\\Qt5\\translations\\qt_help_fr.qm',
   'C:\\Users\\JuanCarlosCruz\\AppData\\Roaming\\Python\\Python311\\site-packages\\PyQt5\\Qt5\\translations\\qt_help_fr.qm',
   'DATA'),
  ('PyQt5\\Qt5\\translations\\qtbase_lv.qm',
   'C:\\Users\\JuanCarlosCruz\\AppData\\Roaming\\Python\\Python311\\site-packages\\PyQt5\\Qt5\\translations\\qtbase_lv.qm',
   'DATA'),
  ('PyQt5\\Qt5\\translations\\qt_help_pl.qm',
   'C:\\Users\\JuanCarlosCruz\\AppData\\Roaming\\Python\\Python311\\site-packages\\PyQt5\\Qt5\\translations\\qt_help_pl.qm',
   'DATA'),
  ('PyQt5\\Qt5\\translations\\qt_help_sk.qm',
   'C:\\Users\\JuanCarlosCruz\\AppData\\Roaming\\Python\\Python311\\site-packages\\PyQt5\\Qt5\\translations\\qt_help_sk.qm',
   'DATA'),
  ('PyQt5\\Qt5\\translations\\qtbase_sk.qm',
   'C:\\Users\\JuanCarlosCruz\\AppData\\Roaming\\Python\\Python311\\site-packages\\PyQt5\\Qt5\\translations\\qtbase_sk.qm',
   'DATA'),
  ('PyQt5\\Qt5\\translations\\qtbase_en.qm',
   'C:\\Users\\JuanCarlosCruz\\AppData\\Roaming\\Python\\Python311\\site-packages\\PyQt5\\Qt5\\translations\\qtbase_en.qm',
   'DATA'),
  ('PyQt5\\Qt5\\translations\\qt_da.qm',
   'C:\\Users\\JuanCarlosCruz\\AppData\\Roaming\\Python\\Python311\\site-packages\\PyQt5\\Qt5\\translations\\qt_da.qm',
   'DATA'),
  ('PyQt5\\Qt5\\translations\\qtbase_bg.qm',
   'C:\\Users\\JuanCarlosCruz\\AppData\\Roaming\\Python\\Python311\\site-packages\\PyQt5\\Qt5\\translations\\qtbase_bg.qm',
   'DATA'),
  ('PyQt5\\Qt5\\translations\\qt_de.qm',
   'C:\\Users\\JuanCarlosCruz\\AppData\\Roaming\\Python\\Python311\\site-packages\\PyQt5\\Qt5\\translations\\qt_de.qm',
   'DATA'),
  ('PyQt5\\Qt5\\translations\\qtbase_fr.qm',
   'C:\\Users\\JuanCarlosCruz\\AppData\\Roaming\\Python\\Python311\\site-packages\\PyQt5\\Qt5\\translations\\qtbase_fr.qm',
   'DATA'),
  ('PyQt5\\Qt5\\translations\\qt_help_da.qm',
   'C:\\Users\\JuanCarlosCruz\\AppData\\Roaming\\Python\\Python311\\site-packages\\PyQt5\\Qt5\\translations\\qt_help_da.qm',
   'DATA'),
  ('PyQt5\\Qt5\\translations\\qt_uk.qm',
   'C:\\Users\\JuanCarlosCruz\\AppData\\Roaming\\Python\\Python311\\site-packages\\PyQt5\\Qt5\\translations\\qt_uk.qm',
   'DATA'),
  ('PyQt5\\Qt5\\translations\\qt_gd.qm',
   'C:\\Users\\JuanCarlosCruz\\AppData\\Roaming\\Python\\Python311\\site-packages\\PyQt5\\Qt5\\translations\\qt_gd.qm',
   'DATA'),
  ('PyQt5\\Qt5\\translations\\qt_it.qm',
   'C:\\Users\\JuanCarlosCruz\\AppData\\Roaming\\Python\\Python311\\site-packages\\PyQt5\\Qt5\\translations\\qt_it.qm',
   'DATA'),
  ('PyQt5\\Qt5\\translations\\qt_help_zh_TW.qm',
   'C:\\Users\\JuanCarlosCruz\\AppData\\Roaming\\Python\\Python311\\site-packages\\PyQt5\\Qt5\\translations\\qt_help_zh_TW.qm',
   'DATA'),
  ('PyQt5\\Qt5\\translations\\qt_ja.qm',
   'C:\\Users\\JuanCarlosCruz\\AppData\\Roaming\\Python\\Python311\\site-packages\\PyQt5\\Qt5\\translations\\qt_ja.qm',
   'DATA'),
  ('PyQt5\\Qt5\\translations\\qt_lt.qm',
   'C:\\Users\\JuanCarlosCruz\\AppData\\Roaming\\Python\\Python311\\site-packages\\PyQt5\\Qt5\\translations\\qt_lt.qm',
   'DATA'),
  ('PyQt5\\Qt5\\translations\\qt_ru.qm',
   'C:\\Users\\JuanCarlosCruz\\AppData\\Roaming\\Python\\Python311\\site-packages\\PyQt5\\Qt5\\translations\\qt_ru.qm',
   'DATA'),
  ('PyQt5\\Qt5\\translations\\qtbase_cs.qm',
   'C:\\Users\\JuanCarlosCruz\\AppData\\Roaming\\Python\\Python311\\site-packages\\PyQt5\\Qt5\\translations\\qtbase_cs.qm',
   'DATA'),
  ('PyQt5\\Qt5\\translations\\qtbase_gd.qm',
   'C:\\Users\\JuanCarlosCruz\\AppData\\Roaming\\Python\\Python311\\site-packages\\PyQt5\\Qt5\\translations\\qtbase_gd.qm',
   'DATA'),
  ('PyQt5\\Qt5\\translations\\qt_zh_CN.qm',
   'C:\\Users\\JuanCarlosCruz\\AppData\\Roaming\\Python\\Python311\\site-packages\\PyQt5\\Qt5\\translations\\qt_zh_CN.qm',
   'DATA'),
  ('PyQt5\\Qt5\\translations\\qtbase_ja.qm',
   'C:\\Users\\JuanCarlosCruz\\AppData\\Roaming\\Python\\Python311\\site-packages\\PyQt5\\Qt5\\translations\\qtbase_ja.qm',
   'DATA'),
  ('PyQt5\\Qt5\\translations\\qtbase_de.qm',
   'C:\\Users\\JuanCarlosCruz\\AppData\\Roaming\\Python\\Python311\\site-packages\\PyQt5\\Qt5\\translations\\qtbase_de.qm',
   'DATA'),
  ('PyQt5\\Qt5\\translations\\qtbase_uk.qm',
   'C:\\Users\\JuanCarlosCruz\\AppData\\Roaming\\Python\\Python311\\site-packages\\PyQt5\\Qt5\\translations\\qtbase_uk.qm',
   'DATA'),
  ('PyQt5\\Qt5\\translations\\qt_fi.qm',
   'C:\\Users\\JuanCarlosCruz\\AppData\\Roaming\\Python\\Python311\\site-packages\\PyQt5\\Qt5\\translations\\qt_fi.qm',
   'DATA'),
  ('PyQt5\\Qt5\\translations\\qt_he.qm',
   'C:\\Users\\JuanCarlosCruz\\AppData\\Roaming\\Python\\Python311\\site-packages\\PyQt5\\Qt5\\translations\\qt_he.qm',
   'DATA'),
  ('PyQt5\\Qt5\\translations\\qt_lv.qm',
   'C:\\Users\\JuanCarlosCruz\\AppData\\Roaming\\Python\\Python311\\site-packages\\PyQt5\\Qt5\\translations\\qt_lv.qm',
   'DATA'),
  ('PyQt5\\Qt5\\translations\\qtbase_he.qm',
   'C:\\Users\\JuanCarlosCruz\\AppData\\Roaming\\Python\\Python311\\site-packages\\PyQt5\\Qt5\\translations\\qtbase_he.qm',
   'DATA'),
  ('PyQt5\\Qt5\\translations\\qtbase_ca.qm',
   'C:\\Users\\JuanCarlosCruz\\AppData\\Roaming\\Python\\Python311\\site-packages\\PyQt5\\Qt5\\translations\\qtbase_ca.qm',
   'DATA'),
  ('PyQt5\\Qt5\\translations\\qt_en.qm',
   'C:\\Users\\JuanCarlosCruz\\AppData\\Roaming\\Python\\Python311\\site-packages\\PyQt5\\Qt5\\translations\\qt_en.qm',
   'DATA'),
  ('PyQt5\\Qt5\\translations\\qt_es.qm',
   'C:\\Users\\JuanCarlosCruz\\AppData\\Roaming\\Python\\Python311\\site-packages\\PyQt5\\Qt5\\translations\\qt_es.qm',
   'DATA'),
  ('PyQt5\\Qt5\\translations\\qt_help_en.qm',
   'C:\\Users\\JuanCarlosCruz\\AppData\\Roaming\\Python\\Python311\\site-packages\\PyQt5\\Qt5\\translations\\qt_help_en.qm',
   'DATA'),
  ('PyQt5\\Qt5\\translations\\qt_help_zh_CN.qm',
   'C:\\Users\\JuanCarlosCruz\\AppData\\Roaming\\Python\\Python311\\site-packages\\PyQt5\\Qt5\\translations\\qt_help_zh_CN.qm',
   'DATA'),
  ('PyQt5\\Qt5\\translations\\qt_sk.qm',
   'C:\\Users\\JuanCarlosCruz\\AppData\\Roaming\\Python\\Python311\\site-packages\\PyQt5\\Qt5\\translations\\qt_sk.qm',
   'DATA'),
  ('PyQt5\\Qt5\\translations\\qt_sv.qm',
   'C:\\Users\\JuanCarlosCruz\\AppData\\Roaming\\Python\\Python311\\site-packages\\PyQt5\\Qt5\\translations\\qt_sv.qm',
   'DATA'),
  ('PyQt5\\Qt5\\translations\\qt_help_hu.qm',
   'C:\\Users\\JuanCarlosCruz\\AppData\\Roaming\\Python\\Python311\\site-packages\\PyQt5\\Qt5\\translations\\qt_help_hu.qm',
   'DATA'),
  ('PyQt5\\Qt5\\translations\\qtbase_pl.qm',
   'C:\\Users\\JuanCarlosCruz\\AppData\\Roaming\\Python\\Python311\\site-packages\\PyQt5\\Qt5\\translations\\qtbase_pl.qm',
   'DATA'),
  ('PyQt5\\Qt5\\translations\\qt_help_ca.qm',
   'C:\\Users\\JuanCarlosCruz\\AppData\\Roaming\\Python\\Python311\\site-packages\\PyQt5\\Qt5\\translations\\qt_help_ca.qm',
   'DATA'),
  ('PyQt5\\Qt5\\translations\\qtbase_zh_TW.qm',
   'C:\\Users\\JuanCarlosCruz\\AppData\\Roaming\\Python\\Python311\\site-packages\\PyQt5\\Qt5\\translations\\qtbase_zh_TW.qm',
   'DATA'),
  ('PyQt5\\Qt5\\translations\\qt_help_sl.qm',
   'C:\\Users\\JuanCarlosCruz\\AppData\\Roaming\\Python\\Python311\\site-packages\\PyQt5\\Qt5\\translations\\qt_help_sl.qm',
   'DATA'),
  ('PyQt5\\Qt5\\translations\\qt_gl.qm',
   'C:\\Users\\JuanCarlosCruz\\AppData\\Roaming\\Python\\Python311\\site-packages\\PyQt5\\Qt5\\translations\\qt_gl.qm',
   'DATA'),
  ('PyQt5\\Qt5\\translations\\qt_help_gl.qm',
   'C:\\Users\\JuanCarlosCruz\\AppData\\Roaming\\Python\\Python311\\site-packages\\PyQt5\\Qt5\\translations\\qt_help_gl.qm',
   'DATA'),
  ('PyQt5\\Qt5\\translations\\qtbase_ko.qm',
   'C:\\Users\\JuanCarlosCruz\\AppData\\Roaming\\Python\\Python311\\site-packages\\PyQt5\\Qt5\\translations\\qtbase_ko.qm',
   'DATA'),
  ('PyQt5\\Qt5\\translations\\qt_tr.qm',
   'C:\\Users\\JuanCarlosCruz\\AppData\\Roaming\\Python\\Python311\\site-packages\\PyQt5\\Qt5\\translations\\qt_tr.qm',
   'DATA'),
  ('PyQt5\\Qt5\\translations\\qt_help_bg.qm',
   'C:\\Users\\JuanCarlosCruz\\AppData\\Roaming\\Python\\Python311\\site-packages\\PyQt5\\Qt5\\translations\\qt_help_bg.qm',
   'DATA')],
 [])
