('C:\\Users\\JuanCarlosCruz\\Desktop\\Programs\\firefox-profile-refresher-gui\\build\\profile_reset_gui\\profile_reset_gui.pkg',
 {'BINARY': True,
  'DATA': True,
  'EXECUTABLE': True,
  'EXTENSION': True,
  'PYMODULE': True,
  'PYSOURCE': True,
  'PYZ': False,
  'SPLASH': True},
 [('PYZ-00.pyz',
   'C:\\Users\\JuanCarlosCruz\\Desktop\\Programs\\firefox-profile-refresher-gui\\build\\profile_reset_gui\\PYZ-00.pyz',
   'PYZ'),
  ('struct',
   'C:\\Users\\JuanCarlosCruz\\Desktop\\Programs\\firefox-profile-refresher-gui\\build\\profile_reset_gui\\localpycs\\struct.pyc',
   'PYMODULE'),
  ('pyimod01_archive',
   'C:\\Users\\JuanCarlosCruz\\Desktop\\Programs\\firefox-profile-refresher-gui\\build\\profile_reset_gui\\localpycs\\pyimod01_archive.pyc',
   'PYMODULE'),
  ('pyimod02_importers',
   'C:\\Users\\JuanCarlosCruz\\Desktop\\Programs\\firefox-profile-refresher-gui\\build\\profile_reset_gui\\localpycs\\pyimod02_importers.pyc',
   'PYMODULE'),
  ('pyimod03_ctypes',
   'C:\\Users\\JuanCarlosCruz\\Desktop\\Programs\\firefox-profile-refresher-gui\\build\\profile_reset_gui\\localpycs\\pyimod03_ctypes.pyc',
   'PYMODULE'),
  ('pyimod04_pywin32',
   'C:\\Users\\JuanCarlosCruz\\Desktop\\Programs\\firefox-profile-refresher-gui\\build\\profile_reset_gui\\localpycs\\pyimod04_pywin32.pyc',
   'PYMODULE'),
  ('pyiboot01_bootstrap',
   'C:\\Users\\JuanCarlosCruz\\AppData\\Roaming\\Python\\Python311\\site-packages\\PyInstaller\\loader\\pyiboot01_bootstrap.py',
   'PYSOURCE'),
  ('pyi_rth_inspect',
   'C:\\Users\\JuanCarlosCruz\\AppData\\Roaming\\Python\\Python311\\site-packages\\PyInstaller\\hooks\\rthooks\\pyi_rth_inspect.py',
   'PYSOURCE'),
  ('pyi_rth_pyqt5',
   'C:\\Users\\JuanCarlosCruz\\AppData\\Roaming\\Python\\Python311\\site-packages\\PyInstaller\\hooks\\rthooks\\pyi_rth_pyqt5.py',
   'PYSOURCE'),
  ('pyi_rth_pkgutil',
   'C:\\Users\\JuanCarlosCruz\\AppData\\Roaming\\Python\\Python311\\site-packages\\PyInstaller\\hooks\\rthooks\\pyi_rth_pkgutil.py',
   'PYSOURCE'),
  ('profile_reset_gui',
   'C:\\Users\\JuanCarlosCruz\\Desktop\\Programs\\firefox-profile-refresher-gui\\profile_reset_gui.py',
   'PYSOURCE'),
  ('python311.dll', 'C:\\Program Files\\Python311\\python311.dll', 'BINARY'),
  ('api-ms-win-crt-math-l1-1-0.dll',
   'C:\\Program Files\\VisualSVN Server\\bin\\api-ms-win-crt-math-l1-1-0.dll',
   'BINARY'),
  ('VCRUNTIME140.dll',
   'C:\\Program Files\\Python311\\VCRUNTIME140.dll',
   'BINARY'),
  ('api-ms-win-crt-runtime-l1-1-0.dll',
   'C:\\Program Files\\VisualSVN '
   'Server\\bin\\api-ms-win-crt-runtime-l1-1-0.dll',
   'BINARY'),
  ('api-ms-win-crt-locale-l1-1-0.dll',
   'C:\\Program Files\\VisualSVN Server\\bin\\api-ms-win-crt-locale-l1-1-0.dll',
   'BINARY'),
  ('api-ms-win-crt-stdio-l1-1-0.dll',
   'C:\\Program Files\\VisualSVN Server\\bin\\api-ms-win-crt-stdio-l1-1-0.dll',
   'BINARY'),
  ('api-ms-win-crt-heap-l1-1-0.dll',
   'C:\\Program Files\\VisualSVN Server\\bin\\api-ms-win-crt-heap-l1-1-0.dll',
   'BINARY'),
  ('api-ms-win-crt-time-l1-1-0.dll',
   'C:\\Program Files\\VisualSVN Server\\bin\\api-ms-win-crt-time-l1-1-0.dll',
   'BINARY'),
  ('api-ms-win-crt-conio-l1-1-0.dll',
   'C:\\Program Files\\VisualSVN Server\\bin\\api-ms-win-crt-conio-l1-1-0.dll',
   'BINARY'),
  ('api-ms-win-crt-environment-l1-1-0.dll',
   'C:\\Program Files\\VisualSVN '
   'Server\\bin\\api-ms-win-crt-environment-l1-1-0.dll',
   'BINARY'),
  ('api-ms-win-crt-filesystem-l1-1-0.dll',
   'C:\\Program Files\\VisualSVN '
   'Server\\bin\\api-ms-win-crt-filesystem-l1-1-0.dll',
   'BINARY'),
  ('api-ms-win-crt-string-l1-1-0.dll',
   'C:\\Program Files\\VisualSVN Server\\bin\\api-ms-win-crt-string-l1-1-0.dll',
   'BINARY'),
  ('api-ms-win-crt-convert-l1-1-0.dll',
   'C:\\Program Files\\VisualSVN '
   'Server\\bin\\api-ms-win-crt-convert-l1-1-0.dll',
   'BINARY'),
  ('api-ms-win-crt-process-l1-1-0.dll',
   'C:\\Program Files\\VisualSVN '
   'Server\\bin\\api-ms-win-crt-process-l1-1-0.dll',
   'BINARY'),
  ('ucrtbase.dll',
   'C:\\Program Files\\VisualSVN Server\\bin\\ucrtbase.dll',
   'BINARY'),
  ('PyQt5\\Qt5\\plugins\\imageformats\\qtiff.dll',
   'C:\\Users\\JuanCarlosCruz\\AppData\\Roaming\\Python\\Python311\\site-packages\\PyQt5\\Qt5\\plugins\\imageformats\\qtiff.dll',
   'BINARY'),
  ('PyQt5\\Qt5\\plugins\\imageformats\\qico.dll',
   'C:\\Users\\JuanCarlosCruz\\AppData\\Roaming\\Python\\Python311\\site-packages\\PyQt5\\Qt5\\plugins\\imageformats\\qico.dll',
   'BINARY'),
  ('PyQt5\\Qt5\\bin\\opengl32sw.dll',
   'C:\\Users\\JuanCarlosCruz\\AppData\\Roaming\\Python\\Python311\\site-packages\\PyQt5\\Qt5\\bin\\opengl32sw.dll',
   'BINARY'),
  ('PyQt5\\Qt5\\plugins\\platformthemes\\qxdgdesktopportal.dll',
   'C:\\Users\\JuanCarlosCruz\\AppData\\Roaming\\Python\\Python311\\site-packages\\PyQt5\\Qt5\\plugins\\platformthemes\\qxdgdesktopportal.dll',
   'BINARY'),
  ('PyQt5\\Qt5\\bin\\libEGL.dll',
   'C:\\Users\\JuanCarlosCruz\\AppData\\Roaming\\Python\\Python311\\site-packages\\PyQt5\\Qt5\\bin\\libEGL.dll',
   'BINARY'),
  ('PyQt5\\Qt5\\plugins\\imageformats\\qgif.dll',
   'C:\\Users\\JuanCarlosCruz\\AppData\\Roaming\\Python\\Python311\\site-packages\\PyQt5\\Qt5\\plugins\\imageformats\\qgif.dll',
   'BINARY'),
  ('PyQt5\\Qt5\\plugins\\iconengines\\qsvgicon.dll',
   'C:\\Users\\JuanCarlosCruz\\AppData\\Roaming\\Python\\Python311\\site-packages\\PyQt5\\Qt5\\plugins\\iconengines\\qsvgicon.dll',
   'BINARY'),
  ('PyQt5\\Qt5\\plugins\\platforms\\qminimal.dll',
   'C:\\Users\\JuanCarlosCruz\\AppData\\Roaming\\Python\\Python311\\site-packages\\PyQt5\\Qt5\\plugins\\platforms\\qminimal.dll',
   'BINARY'),
  ('PyQt5\\Qt5\\plugins\\imageformats\\qjpeg.dll',
   'C:\\Users\\JuanCarlosCruz\\AppData\\Roaming\\Python\\Python311\\site-packages\\PyQt5\\Qt5\\plugins\\imageformats\\qjpeg.dll',
   'BINARY'),
  ('PyQt5\\Qt5\\plugins\\imageformats\\qtga.dll',
   'C:\\Users\\JuanCarlosCruz\\AppData\\Roaming\\Python\\Python311\\site-packages\\PyQt5\\Qt5\\plugins\\imageformats\\qtga.dll',
   'BINARY'),
  ('PyQt5\\Qt5\\bin\\d3dcompiler_47.dll',
   'C:\\Users\\JuanCarlosCruz\\AppData\\Roaming\\Python\\Python311\\site-packages\\PyQt5\\Qt5\\bin\\d3dcompiler_47.dll',
   'BINARY'),
  ('PyQt5\\Qt5\\plugins\\imageformats\\qsvg.dll',
   'C:\\Users\\JuanCarlosCruz\\AppData\\Roaming\\Python\\Python311\\site-packages\\PyQt5\\Qt5\\plugins\\imageformats\\qsvg.dll',
   'BINARY'),
  ('PyQt5\\Qt5\\plugins\\platforms\\qwebgl.dll',
   'C:\\Users\\JuanCarlosCruz\\AppData\\Roaming\\Python\\Python311\\site-packages\\PyQt5\\Qt5\\plugins\\platforms\\qwebgl.dll',
   'BINARY'),
  ('PyQt5\\Qt5\\bin\\libGLESv2.dll',
   'C:\\Users\\JuanCarlosCruz\\AppData\\Roaming\\Python\\Python311\\site-packages\\PyQt5\\Qt5\\bin\\libGLESv2.dll',
   'BINARY'),
  ('PyQt5\\Qt5\\plugins\\platforms\\qoffscreen.dll',
   'C:\\Users\\JuanCarlosCruz\\AppData\\Roaming\\Python\\Python311\\site-packages\\PyQt5\\Qt5\\plugins\\platforms\\qoffscreen.dll',
   'BINARY'),
  ('PyQt5\\Qt5\\plugins\\generic\\qtuiotouchplugin.dll',
   'C:\\Users\\JuanCarlosCruz\\AppData\\Roaming\\Python\\Python311\\site-packages\\PyQt5\\Qt5\\plugins\\generic\\qtuiotouchplugin.dll',
   'BINARY'),
  ('PyQt5\\Qt5\\plugins\\styles\\qwindowsvistastyle.dll',
   'C:\\Users\\JuanCarlosCruz\\AppData\\Roaming\\Python\\Python311\\site-packages\\PyQt5\\Qt5\\plugins\\styles\\qwindowsvistastyle.dll',
   'BINARY'),
  ('PyQt5\\Qt5\\plugins\\platforms\\qwindows.dll',
   'C:\\Users\\JuanCarlosCruz\\AppData\\Roaming\\Python\\Python311\\site-packages\\PyQt5\\Qt5\\plugins\\platforms\\qwindows.dll',
   'BINARY'),
  ('PyQt5\\Qt5\\plugins\\imageformats\\qwebp.dll',
   'C:\\Users\\JuanCarlosCruz\\AppData\\Roaming\\Python\\Python311\\site-packages\\PyQt5\\Qt5\\plugins\\imageformats\\qwebp.dll',
   'BINARY'),
  ('PyQt5\\Qt5\\plugins\\imageformats\\qwbmp.dll',
   'C:\\Users\\JuanCarlosCruz\\AppData\\Roaming\\Python\\Python311\\site-packages\\PyQt5\\Qt5\\plugins\\imageformats\\qwbmp.dll',
   'BINARY'),
  ('PyQt5\\Qt5\\plugins\\imageformats\\qicns.dll',
   'C:\\Users\\JuanCarlosCruz\\AppData\\Roaming\\Python\\Python311\\site-packages\\PyQt5\\Qt5\\plugins\\imageformats\\qicns.dll',
   'BINARY'),
  ('_decimal.pyd',
   'C:\\Program Files\\Python311\\DLLs\\_decimal.pyd',
   'EXTENSION'),
  ('_hashlib.pyd',
   'C:\\Program Files\\Python311\\DLLs\\_hashlib.pyd',
   'EXTENSION'),
  ('select.pyd', 'C:\\Program Files\\Python311\\DLLs\\select.pyd', 'EXTENSION'),
  ('_socket.pyd',
   'C:\\Program Files\\Python311\\DLLs\\_socket.pyd',
   'EXTENSION'),
  ('_lzma.pyd', 'C:\\Program Files\\Python311\\DLLs\\_lzma.pyd', 'EXTENSION'),
  ('_bz2.pyd', 'C:\\Program Files\\Python311\\DLLs\\_bz2.pyd', 'EXTENSION'),
  ('_ssl.pyd', 'C:\\Program Files\\Python311\\DLLs\\_ssl.pyd', 'EXTENSION'),
  ('unicodedata.pyd',
   'C:\\Program Files\\Python311\\DLLs\\unicodedata.pyd',
   'EXTENSION'),
  ('PyQt5\\QtCore.pyd',
   'C:\\Users\\JuanCarlosCruz\\AppData\\Roaming\\Python\\Python311\\site-packages\\PyQt5\\QtCore.pyd',
   'EXTENSION'),
  ('PyQt5\\sip.cp311-win_amd64.pyd',
   'C:\\Users\\JuanCarlosCruz\\AppData\\Roaming\\Python\\Python311\\site-packages\\PyQt5\\sip.cp311-win_amd64.pyd',
   'EXTENSION'),
  ('PyQt5\\QtWidgets.pyd',
   'C:\\Users\\JuanCarlosCruz\\AppData\\Roaming\\Python\\Python311\\site-packages\\PyQt5\\QtWidgets.pyd',
   'EXTENSION'),
  ('PyQt5\\QtGui.pyd',
   'C:\\Users\\JuanCarlosCruz\\AppData\\Roaming\\Python\\Python311\\site-packages\\PyQt5\\QtGui.pyd',
   'EXTENSION'),
  ('PyQt5\\Qt5\\bin\\Qt5Gui.dll',
   'C:\\Users\\JuanCarlosCruz\\AppData\\Roaming\\Python\\Python311\\site-packages\\PyQt5\\Qt5\\bin\\Qt5Gui.dll',
   'BINARY'),
  ('PyQt5\\Qt5\\bin\\Qt5Core.dll',
   'C:\\Users\\JuanCarlosCruz\\AppData\\Roaming\\Python\\Python311\\site-packages\\PyQt5\\Qt5\\bin\\Qt5Core.dll',
   'BINARY'),
  ('api-ms-win-crt-utility-l1-1-0.dll',
   'C:\\Program Files\\VisualSVN '
   'Server\\bin\\api-ms-win-crt-utility-l1-1-0.dll',
   'BINARY'),
  ('PyQt5\\Qt5\\bin\\Qt5DBus.dll',
   'C:\\Users\\JuanCarlosCruz\\AppData\\Roaming\\Python\\Python311\\site-packages\\PyQt5\\Qt5\\bin\\Qt5DBus.dll',
   'BINARY'),
  ('PyQt5\\Qt5\\bin\\Qt5Svg.dll',
   'C:\\Users\\JuanCarlosCruz\\AppData\\Roaming\\Python\\Python311\\site-packages\\PyQt5\\Qt5\\bin\\Qt5Svg.dll',
   'BINARY'),
  ('PyQt5\\Qt5\\bin\\Qt5Quick.dll',
   'C:\\Users\\JuanCarlosCruz\\AppData\\Roaming\\Python\\Python311\\site-packages\\PyQt5\\Qt5\\bin\\Qt5Quick.dll',
   'BINARY'),
  ('PyQt5\\Qt5\\bin\\MSVCP140.dll',
   'C:\\Users\\JuanCarlosCruz\\AppData\\Roaming\\Python\\Python311\\site-packages\\PyQt5\\Qt5\\bin\\MSVCP140.dll',
   'BINARY'),
  ('PyQt5\\Qt5\\bin\\Qt5WebSockets.dll',
   'C:\\Users\\JuanCarlosCruz\\AppData\\Roaming\\Python\\Python311\\site-packages\\PyQt5\\Qt5\\bin\\Qt5WebSockets.dll',
   'BINARY'),
  ('PyQt5\\Qt5\\bin\\Qt5Network.dll',
   'C:\\Users\\JuanCarlosCruz\\AppData\\Roaming\\Python\\Python311\\site-packages\\PyQt5\\Qt5\\bin\\Qt5Network.dll',
   'BINARY'),
  ('PyQt5\\Qt5\\bin\\VCRUNTIME140_1.dll',
   'C:\\Users\\JuanCarlosCruz\\AppData\\Roaming\\Python\\Python311\\site-packages\\PyQt5\\Qt5\\bin\\VCRUNTIME140_1.dll',
   'BINARY'),
  ('PyQt5\\Qt5\\bin\\Qt5Widgets.dll',
   'C:\\Users\\JuanCarlosCruz\\AppData\\Roaming\\Python\\Python311\\site-packages\\PyQt5\\Qt5\\bin\\Qt5Widgets.dll',
   'BINARY'),
  ('VCRUNTIME140_1.dll',
   'C:\\Program Files\\Python311\\VCRUNTIME140_1.dll',
   'BINARY'),
  ('libcrypto-1_1.dll',
   'C:\\Program Files\\Python311\\DLLs\\libcrypto-1_1.dll',
   'BINARY'),
  ('libssl-1_1.dll',
   'C:\\Program Files\\Python311\\DLLs\\libssl-1_1.dll',
   'BINARY'),
  ('python3.dll', 'C:\\Program Files\\Python311\\python3.dll', 'BINARY'),
  ('PyQt5\\Qt5\\bin\\MSVCP140_1.dll',
   'C:\\Users\\JuanCarlosCruz\\AppData\\Roaming\\Python\\Python311\\site-packages\\PyQt5\\Qt5\\bin\\MSVCP140_1.dll',
   'BINARY'),
  ('PyQt5\\Qt5\\bin\\Qt5QmlModels.dll',
   'C:\\Users\\JuanCarlosCruz\\AppData\\Roaming\\Python\\Python311\\site-packages\\PyQt5\\Qt5\\bin\\Qt5QmlModels.dll',
   'BINARY'),
  ('PyQt5\\Qt5\\bin\\Qt5Qml.dll',
   'C:\\Users\\JuanCarlosCruz\\AppData\\Roaming\\Python\\Python311\\site-packages\\PyQt5\\Qt5\\bin\\Qt5Qml.dll',
   'BINARY'),
  ('base_library.zip',
   'C:\\Users\\JuanCarlosCruz\\Desktop\\Programs\\firefox-profile-refresher-gui\\build\\profile_reset_gui\\base_library.zip',
   'DATA'),
  ('PyQt5\\Qt5\\translations\\qt_pl.qm',
   'C:\\Users\\JuanCarlosCruz\\AppData\\Roaming\\Python\\Python311\\site-packages\\PyQt5\\Qt5\\translations\\qt_pl.qm',
   'DATA'),
  ('PyQt5\\Qt5\\translations\\qt_help_cs.qm',
   'C:\\Users\\JuanCarlosCruz\\AppData\\Roaming\\Python\\Python311\\site-packages\\PyQt5\\Qt5\\translations\\qt_help_cs.qm',
   'DATA'),
  ('PyQt5\\Qt5\\translations\\qt_help_tr.qm',
   'C:\\Users\\JuanCarlosCruz\\AppData\\Roaming\\Python\\Python311\\site-packages\\PyQt5\\Qt5\\translations\\qt_help_tr.qm',
   'DATA'),
  ('PyQt5\\Qt5\\translations\\qtbase_da.qm',
   'C:\\Users\\JuanCarlosCruz\\AppData\\Roaming\\Python\\Python311\\site-packages\\PyQt5\\Qt5\\translations\\qtbase_da.qm',
   'DATA'),
  ('PyQt5\\Qt5\\translations\\qt_help_ar.qm',
   'C:\\Users\\JuanCarlosCruz\\AppData\\Roaming\\Python\\Python311\\site-packages\\PyQt5\\Qt5\\translations\\qt_help_ar.qm',
   'DATA'),
  ('PyQt5\\Qt5\\translations\\qt_hu.qm',
   'C:\\Users\\JuanCarlosCruz\\AppData\\Roaming\\Python\\Python311\\site-packages\\PyQt5\\Qt5\\translations\\qt_hu.qm',
   'DATA'),
  ('PyQt5\\Qt5\\translations\\qt_cs.qm',
   'C:\\Users\\JuanCarlosCruz\\AppData\\Roaming\\Python\\Python311\\site-packages\\PyQt5\\Qt5\\translations\\qt_cs.qm',
   'DATA'),
  ('PyQt5\\Qt5\\translations\\qtbase_it.qm',
   'C:\\Users\\JuanCarlosCruz\\AppData\\Roaming\\Python\\Python311\\site-packages\\PyQt5\\Qt5\\translations\\qtbase_it.qm',
   'DATA'),
  ('PyQt5\\Qt5\\translations\\qt_help_de.qm',
   'C:\\Users\\JuanCarlosCruz\\AppData\\Roaming\\Python\\Python311\\site-packages\\PyQt5\\Qt5\\translations\\qt_help_de.qm',
   'DATA'),
  ('PyQt5\\Qt5\\translations\\qtbase_ar.qm',
   'C:\\Users\\JuanCarlosCruz\\AppData\\Roaming\\Python\\Python311\\site-packages\\PyQt5\\Qt5\\translations\\qtbase_ar.qm',
   'DATA'),
  ('PyQt5\\Qt5\\translations\\qt_help_uk.qm',
   'C:\\Users\\JuanCarlosCruz\\AppData\\Roaming\\Python\\Python311\\site-packages\\PyQt5\\Qt5\\translations\\qt_help_uk.qm',
   'DATA'),
  ('PyQt5\\Qt5\\translations\\qt_help_ja.qm',
   'C:\\Users\\JuanCarlosCruz\\AppData\\Roaming\\Python\\Python311\\site-packages\\PyQt5\\Qt5\\translations\\qt_help_ja.qm',
   'DATA'),
  ('PyQt5\\Qt5\\translations\\qt_bg.qm',
   'C:\\Users\\JuanCarlosCruz\\AppData\\Roaming\\Python\\Python311\\site-packages\\PyQt5\\Qt5\\translations\\qt_bg.qm',
   'DATA'),
  ('PyQt5\\Qt5\\translations\\qtbase_ru.qm',
   'C:\\Users\\JuanCarlosCruz\\AppData\\Roaming\\Python\\Python311\\site-packages\\PyQt5\\Qt5\\translations\\qtbase_ru.qm',
   'DATA'),
  ('PyQt5\\Qt5\\translations\\qt_ca.qm',
   'C:\\Users\\JuanCarlosCruz\\AppData\\Roaming\\Python\\Python311\\site-packages\\PyQt5\\Qt5\\translations\\qt_ca.qm',
   'DATA'),
  ('PyQt5\\Qt5\\translations\\qtbase_fi.qm',
   'C:\\Users\\JuanCarlosCruz\\AppData\\Roaming\\Python\\Python311\\site-packages\\PyQt5\\Qt5\\translations\\qtbase_fi.qm',
   'DATA'),
  ('PyQt5\\Qt5\\translations\\qt_zh_TW.qm',
   'C:\\Users\\JuanCarlosCruz\\AppData\\Roaming\\Python\\Python311\\site-packages\\PyQt5\\Qt5\\translations\\qt_zh_TW.qm',
   'DATA'),
  ('PyQt5\\Qt5\\translations\\qt_fr.qm',
   'C:\\Users\\JuanCarlosCruz\\AppData\\Roaming\\Python\\Python311\\site-packages\\PyQt5\\Qt5\\translations\\qt_fr.qm',
   'DATA'),
  ('PyQt5\\Qt5\\translations\\qt_help_it.qm',
   'C:\\Users\\JuanCarlosCruz\\AppData\\Roaming\\Python\\Python311\\site-packages\\PyQt5\\Qt5\\translations\\qt_help_it.qm',
   'DATA'),
  ('PyQt5\\Qt5\\translations\\qt_sl.qm',
   'C:\\Users\\JuanCarlosCruz\\AppData\\Roaming\\Python\\Python311\\site-packages\\PyQt5\\Qt5\\translations\\qt_sl.qm',
   'DATA'),
  ('PyQt5\\Qt5\\translations\\qt_fa.qm',
   'C:\\Users\\JuanCarlosCruz\\AppData\\Roaming\\Python\\Python311\\site-packages\\PyQt5\\Qt5\\translations\\qt_fa.qm',
   'DATA'),
  ('PyQt5\\Qt5\\translations\\qt_help_ru.qm',
   'C:\\Users\\JuanCarlosCruz\\AppData\\Roaming\\Python\\Python311\\site-packages\\PyQt5\\Qt5\\translations\\qt_help_ru.qm',
   'DATA'),
  ('PyQt5\\Qt5\\translations\\qtbase_hu.qm',
   'C:\\Users\\JuanCarlosCruz\\AppData\\Roaming\\Python\\Python311\\site-packages\\PyQt5\\Qt5\\translations\\qtbase_hu.qm',
   'DATA'),
  ('PyQt5\\Qt5\\translations\\qt_ko.qm',
   'C:\\Users\\JuanCarlosCruz\\AppData\\Roaming\\Python\\Python311\\site-packages\\PyQt5\\Qt5\\translations\\qt_ko.qm',
   'DATA'),
  ('PyQt5\\Qt5\\translations\\qtbase_es.qm',
   'C:\\Users\\JuanCarlosCruz\\AppData\\Roaming\\Python\\Python311\\site-packages\\PyQt5\\Qt5\\translations\\qtbase_es.qm',
   'DATA'),
  ('PyQt5\\Qt5\\translations\\qt_ar.qm',
   'C:\\Users\\JuanCarlosCruz\\AppData\\Roaming\\Python\\Python311\\site-packages\\PyQt5\\Qt5\\translations\\qt_ar.qm',
   'DATA'),
  ('PyQt5\\Qt5\\translations\\qt_help_es.qm',
   'C:\\Users\\JuanCarlosCruz\\AppData\\Roaming\\Python\\Python311\\site-packages\\PyQt5\\Qt5\\translations\\qt_help_es.qm',
   'DATA'),
  ('PyQt5\\Qt5\\translations\\qt_pt.qm',
   'C:\\Users\\JuanCarlosCruz\\AppData\\Roaming\\Python\\Python311\\site-packages\\PyQt5\\Qt5\\translations\\qt_pt.qm',
   'DATA'),
  ('PyQt5\\Qt5\\translations\\qtbase_tr.qm',
   'C:\\Users\\JuanCarlosCruz\\AppData\\Roaming\\Python\\Python311\\site-packages\\PyQt5\\Qt5\\translations\\qtbase_tr.qm',
   'DATA'),
  ('PyQt5\\Qt5\\translations\\qt_help_ko.qm',
   'C:\\Users\\JuanCarlosCruz\\AppData\\Roaming\\Python\\Python311\\site-packages\\PyQt5\\Qt5\\translations\\qt_help_ko.qm',
   'DATA'),
  ('PyQt5\\Qt5\\translations\\qt_help_fr.qm',
   'C:\\Users\\JuanCarlosCruz\\AppData\\Roaming\\Python\\Python311\\site-packages\\PyQt5\\Qt5\\translations\\qt_help_fr.qm',
   'DATA'),
  ('PyQt5\\Qt5\\translations\\qtbase_lv.qm',
   'C:\\Users\\JuanCarlosCruz\\AppData\\Roaming\\Python\\Python311\\site-packages\\PyQt5\\Qt5\\translations\\qtbase_lv.qm',
   'DATA'),
  ('PyQt5\\Qt5\\translations\\qt_help_pl.qm',
   'C:\\Users\\JuanCarlosCruz\\AppData\\Roaming\\Python\\Python311\\site-packages\\PyQt5\\Qt5\\translations\\qt_help_pl.qm',
   'DATA'),
  ('PyQt5\\Qt5\\translations\\qt_help_sk.qm',
   'C:\\Users\\JuanCarlosCruz\\AppData\\Roaming\\Python\\Python311\\site-packages\\PyQt5\\Qt5\\translations\\qt_help_sk.qm',
   'DATA'),
  ('PyQt5\\Qt5\\translations\\qtbase_sk.qm',
   'C:\\Users\\JuanCarlosCruz\\AppData\\Roaming\\Python\\Python311\\site-packages\\PyQt5\\Qt5\\translations\\qtbase_sk.qm',
   'DATA'),
  ('PyQt5\\Qt5\\translations\\qtbase_en.qm',
   'C:\\Users\\JuanCarlosCruz\\AppData\\Roaming\\Python\\Python311\\site-packages\\PyQt5\\Qt5\\translations\\qtbase_en.qm',
   'DATA'),
  ('PyQt5\\Qt5\\translations\\qt_da.qm',
   'C:\\Users\\JuanCarlosCruz\\AppData\\Roaming\\Python\\Python311\\site-packages\\PyQt5\\Qt5\\translations\\qt_da.qm',
   'DATA'),
  ('PyQt5\\Qt5\\translations\\qtbase_bg.qm',
   'C:\\Users\\JuanCarlosCruz\\AppData\\Roaming\\Python\\Python311\\site-packages\\PyQt5\\Qt5\\translations\\qtbase_bg.qm',
   'DATA'),
  ('PyQt5\\Qt5\\translations\\qt_de.qm',
   'C:\\Users\\JuanCarlosCruz\\AppData\\Roaming\\Python\\Python311\\site-packages\\PyQt5\\Qt5\\translations\\qt_de.qm',
   'DATA'),
  ('PyQt5\\Qt5\\translations\\qtbase_fr.qm',
   'C:\\Users\\JuanCarlosCruz\\AppData\\Roaming\\Python\\Python311\\site-packages\\PyQt5\\Qt5\\translations\\qtbase_fr.qm',
   'DATA'),
  ('PyQt5\\Qt5\\translations\\qt_help_da.qm',
   'C:\\Users\\JuanCarlosCruz\\AppData\\Roaming\\Python\\Python311\\site-packages\\PyQt5\\Qt5\\translations\\qt_help_da.qm',
   'DATA'),
  ('PyQt5\\Qt5\\translations\\qt_uk.qm',
   'C:\\Users\\JuanCarlosCruz\\AppData\\Roaming\\Python\\Python311\\site-packages\\PyQt5\\Qt5\\translations\\qt_uk.qm',
   'DATA'),
  ('PyQt5\\Qt5\\translations\\qt_gd.qm',
   'C:\\Users\\JuanCarlosCruz\\AppData\\Roaming\\Python\\Python311\\site-packages\\PyQt5\\Qt5\\translations\\qt_gd.qm',
   'DATA'),
  ('PyQt5\\Qt5\\translations\\qt_it.qm',
   'C:\\Users\\JuanCarlosCruz\\AppData\\Roaming\\Python\\Python311\\site-packages\\PyQt5\\Qt5\\translations\\qt_it.qm',
   'DATA'),
  ('PyQt5\\Qt5\\translations\\qt_help_zh_TW.qm',
   'C:\\Users\\JuanCarlosCruz\\AppData\\Roaming\\Python\\Python311\\site-packages\\PyQt5\\Qt5\\translations\\qt_help_zh_TW.qm',
   'DATA'),
  ('PyQt5\\Qt5\\translations\\qt_ja.qm',
   'C:\\Users\\JuanCarlosCruz\\AppData\\Roaming\\Python\\Python311\\site-packages\\PyQt5\\Qt5\\translations\\qt_ja.qm',
   'DATA'),
  ('PyQt5\\Qt5\\translations\\qt_lt.qm',
   'C:\\Users\\JuanCarlosCruz\\AppData\\Roaming\\Python\\Python311\\site-packages\\PyQt5\\Qt5\\translations\\qt_lt.qm',
   'DATA'),
  ('PyQt5\\Qt5\\translations\\qt_ru.qm',
   'C:\\Users\\JuanCarlosCruz\\AppData\\Roaming\\Python\\Python311\\site-packages\\PyQt5\\Qt5\\translations\\qt_ru.qm',
   'DATA'),
  ('PyQt5\\Qt5\\translations\\qtbase_cs.qm',
   'C:\\Users\\JuanCarlosCruz\\AppData\\Roaming\\Python\\Python311\\site-packages\\PyQt5\\Qt5\\translations\\qtbase_cs.qm',
   'DATA'),
  ('PyQt5\\Qt5\\translations\\qtbase_gd.qm',
   'C:\\Users\\JuanCarlosCruz\\AppData\\Roaming\\Python\\Python311\\site-packages\\PyQt5\\Qt5\\translations\\qtbase_gd.qm',
   'DATA'),
  ('PyQt5\\Qt5\\translations\\qt_zh_CN.qm',
   'C:\\Users\\JuanCarlosCruz\\AppData\\Roaming\\Python\\Python311\\site-packages\\PyQt5\\Qt5\\translations\\qt_zh_CN.qm',
   'DATA'),
  ('PyQt5\\Qt5\\translations\\qtbase_ja.qm',
   'C:\\Users\\JuanCarlosCruz\\AppData\\Roaming\\Python\\Python311\\site-packages\\PyQt5\\Qt5\\translations\\qtbase_ja.qm',
   'DATA'),
  ('PyQt5\\Qt5\\translations\\qtbase_de.qm',
   'C:\\Users\\JuanCarlosCruz\\AppData\\Roaming\\Python\\Python311\\site-packages\\PyQt5\\Qt5\\translations\\qtbase_de.qm',
   'DATA'),
  ('PyQt5\\Qt5\\translations\\qtbase_uk.qm',
   'C:\\Users\\JuanCarlosCruz\\AppData\\Roaming\\Python\\Python311\\site-packages\\PyQt5\\Qt5\\translations\\qtbase_uk.qm',
   'DATA'),
  ('PyQt5\\Qt5\\translations\\qt_fi.qm',
   'C:\\Users\\JuanCarlosCruz\\AppData\\Roaming\\Python\\Python311\\site-packages\\PyQt5\\Qt5\\translations\\qt_fi.qm',
   'DATA'),
  ('PyQt5\\Qt5\\translations\\qt_he.qm',
   'C:\\Users\\JuanCarlosCruz\\AppData\\Roaming\\Python\\Python311\\site-packages\\PyQt5\\Qt5\\translations\\qt_he.qm',
   'DATA'),
  ('PyQt5\\Qt5\\translations\\qt_lv.qm',
   'C:\\Users\\JuanCarlosCruz\\AppData\\Roaming\\Python\\Python311\\site-packages\\PyQt5\\Qt5\\translations\\qt_lv.qm',
   'DATA'),
  ('PyQt5\\Qt5\\translations\\qtbase_he.qm',
   'C:\\Users\\JuanCarlosCruz\\AppData\\Roaming\\Python\\Python311\\site-packages\\PyQt5\\Qt5\\translations\\qtbase_he.qm',
   'DATA'),
  ('PyQt5\\Qt5\\translations\\qtbase_ca.qm',
   'C:\\Users\\JuanCarlosCruz\\AppData\\Roaming\\Python\\Python311\\site-packages\\PyQt5\\Qt5\\translations\\qtbase_ca.qm',
   'DATA'),
  ('PyQt5\\Qt5\\translations\\qt_en.qm',
   'C:\\Users\\JuanCarlosCruz\\AppData\\Roaming\\Python\\Python311\\site-packages\\PyQt5\\Qt5\\translations\\qt_en.qm',
   'DATA'),
  ('PyQt5\\Qt5\\translations\\qt_es.qm',
   'C:\\Users\\JuanCarlosCruz\\AppData\\Roaming\\Python\\Python311\\site-packages\\PyQt5\\Qt5\\translations\\qt_es.qm',
   'DATA'),
  ('PyQt5\\Qt5\\translations\\qt_help_en.qm',
   'C:\\Users\\JuanCarlosCruz\\AppData\\Roaming\\Python\\Python311\\site-packages\\PyQt5\\Qt5\\translations\\qt_help_en.qm',
   'DATA'),
  ('PyQt5\\Qt5\\translations\\qt_help_zh_CN.qm',
   'C:\\Users\\JuanCarlosCruz\\AppData\\Roaming\\Python\\Python311\\site-packages\\PyQt5\\Qt5\\translations\\qt_help_zh_CN.qm',
   'DATA'),
  ('PyQt5\\Qt5\\translations\\qt_sk.qm',
   'C:\\Users\\JuanCarlosCruz\\AppData\\Roaming\\Python\\Python311\\site-packages\\PyQt5\\Qt5\\translations\\qt_sk.qm',
   'DATA'),
  ('PyQt5\\Qt5\\translations\\qt_sv.qm',
   'C:\\Users\\JuanCarlosCruz\\AppData\\Roaming\\Python\\Python311\\site-packages\\PyQt5\\Qt5\\translations\\qt_sv.qm',
   'DATA'),
  ('PyQt5\\Qt5\\translations\\qt_help_hu.qm',
   'C:\\Users\\JuanCarlosCruz\\AppData\\Roaming\\Python\\Python311\\site-packages\\PyQt5\\Qt5\\translations\\qt_help_hu.qm',
   'DATA'),
  ('PyQt5\\Qt5\\translations\\qtbase_pl.qm',
   'C:\\Users\\JuanCarlosCruz\\AppData\\Roaming\\Python\\Python311\\site-packages\\PyQt5\\Qt5\\translations\\qtbase_pl.qm',
   'DATA'),
  ('PyQt5\\Qt5\\translations\\qt_help_ca.qm',
   'C:\\Users\\JuanCarlosCruz\\AppData\\Roaming\\Python\\Python311\\site-packages\\PyQt5\\Qt5\\translations\\qt_help_ca.qm',
   'DATA'),
  ('PyQt5\\Qt5\\translations\\qtbase_zh_TW.qm',
   'C:\\Users\\JuanCarlosCruz\\AppData\\Roaming\\Python\\Python311\\site-packages\\PyQt5\\Qt5\\translations\\qtbase_zh_TW.qm',
   'DATA'),
  ('PyQt5\\Qt5\\translations\\qt_help_sl.qm',
   'C:\\Users\\JuanCarlosCruz\\AppData\\Roaming\\Python\\Python311\\site-packages\\PyQt5\\Qt5\\translations\\qt_help_sl.qm',
   'DATA'),
  ('PyQt5\\Qt5\\translations\\qt_gl.qm',
   'C:\\Users\\JuanCarlosCruz\\AppData\\Roaming\\Python\\Python311\\site-packages\\PyQt5\\Qt5\\translations\\qt_gl.qm',
   'DATA'),
  ('PyQt5\\Qt5\\translations\\qt_help_gl.qm',
   'C:\\Users\\JuanCarlosCruz\\AppData\\Roaming\\Python\\Python311\\site-packages\\PyQt5\\Qt5\\translations\\qt_help_gl.qm',
   'DATA'),
  ('PyQt5\\Qt5\\translations\\qtbase_ko.qm',
   'C:\\Users\\JuanCarlosCruz\\AppData\\Roaming\\Python\\Python311\\site-packages\\PyQt5\\Qt5\\translations\\qtbase_ko.qm',
   'DATA'),
  ('PyQt5\\Qt5\\translations\\qt_tr.qm',
   'C:\\Users\\JuanCarlosCruz\\AppData\\Roaming\\Python\\Python311\\site-packages\\PyQt5\\Qt5\\translations\\qt_tr.qm',
   'DATA'),
  ('PyQt5\\Qt5\\translations\\qt_help_bg.qm',
   'C:\\Users\\JuanCarlosCruz\\AppData\\Roaming\\Python\\Python311\\site-packages\\PyQt5\\Qt5\\translations\\qt_help_bg.qm',
   'DATA')],
 False,
 False,
 False,
 [],
 None,
 None,
 None)
