('C:\\Users\\JuanCarlosCruz\\Desktop\\Programs\\firefox-profile-refresher-gui\\build\\profile_reset_gui\\PYZ-00.pyz',
 [('PyQt5',
   'C:\\Users\\JuanCarlosCruz\\AppData\\Roaming\\Python\\Python311\\site-packages\\PyQt5\\__init__.py',
   'PYMODULE'),
  ('_compat_pickle',
   'C:\\Program Files\\Python311\\Lib\\_compat_pickle.py',
   'PYMODULE'),
  ('_compression',
   'C:\\Program Files\\Python311\\Lib\\_compression.py',
   'PYMODULE'),
  ('_py_abc', 'C:\\Program Files\\Python311\\Lib\\_py_abc.py', 'PYMODULE'),
  ('_pydecimal',
   'C:\\Program Files\\Python311\\Lib\\_pydecimal.py',
   'PYMODULE'),
  ('_strptime', 'C:\\Program Files\\Python311\\Lib\\_strptime.py', 'PYMODULE'),
  ('_threading_local',
   'C:\\Program Files\\Python311\\Lib\\_threading_local.py',
   'PYMODULE'),
  ('argparse', 'C:\\Program Files\\Python311\\Lib\\argparse.py', 'PYMODULE'),
  ('ast', 'C:\\Program Files\\Python311\\Lib\\ast.py', 'PYMODULE'),
  ('base64', 'C:\\Program Files\\Python311\\Lib\\base64.py', 'PYMODULE'),
  ('bisect', 'C:\\Program Files\\Python311\\Lib\\bisect.py', 'PYMODULE'),
  ('bz2', 'C:\\Program Files\\Python311\\Lib\\bz2.py', 'PYMODULE'),
  ('calendar', 'C:\\Program Files\\Python311\\Lib\\calendar.py', 'PYMODULE'),
  ('contextlib',
   'C:\\Program Files\\Python311\\Lib\\contextlib.py',
   'PYMODULE'),
  ('contextvars',
   'C:\\Program Files\\Python311\\Lib\\contextvars.py',
   'PYMODULE'),
  ('copy', 'C:\\Program Files\\Python311\\Lib\\copy.py', 'PYMODULE'),
  ('csv', 'C:\\Program Files\\Python311\\Lib\\csv.py', 'PYMODULE'),
  ('dataclasses',
   'C:\\Program Files\\Python311\\Lib\\dataclasses.py',
   'PYMODULE'),
  ('datetime', 'C:\\Program Files\\Python311\\Lib\\datetime.py', 'PYMODULE'),
  ('decimal', 'C:\\Program Files\\Python311\\Lib\\decimal.py', 'PYMODULE'),
  ('dis', 'C:\\Program Files\\Python311\\Lib\\dis.py', 'PYMODULE'),
  ('email',
   'C:\\Program Files\\Python311\\Lib\\email\\__init__.py',
   'PYMODULE'),
  ('email._encoded_words',
   'C:\\Program Files\\Python311\\Lib\\email\\_encoded_words.py',
   'PYMODULE'),
  ('email._header_value_parser',
   'C:\\Program Files\\Python311\\Lib\\email\\_header_value_parser.py',
   'PYMODULE'),
  ('email._parseaddr',
   'C:\\Program Files\\Python311\\Lib\\email\\_parseaddr.py',
   'PYMODULE'),
  ('email._policybase',
   'C:\\Program Files\\Python311\\Lib\\email\\_policybase.py',
   'PYMODULE'),
  ('email.base64mime',
   'C:\\Program Files\\Python311\\Lib\\email\\base64mime.py',
   'PYMODULE'),
  ('email.charset',
   'C:\\Program Files\\Python311\\Lib\\email\\charset.py',
   'PYMODULE'),
  ('email.contentmanager',
   'C:\\Program Files\\Python311\\Lib\\email\\contentmanager.py',
   'PYMODULE'),
  ('email.encoders',
   'C:\\Program Files\\Python311\\Lib\\email\\encoders.py',
   'PYMODULE'),
  ('email.errors',
   'C:\\Program Files\\Python311\\Lib\\email\\errors.py',
   'PYMODULE'),
  ('email.feedparser',
   'C:\\Program Files\\Python311\\Lib\\email\\feedparser.py',
   'PYMODULE'),
  ('email.generator',
   'C:\\Program Files\\Python311\\Lib\\email\\generator.py',
   'PYMODULE'),
  ('email.header',
   'C:\\Program Files\\Python311\\Lib\\email\\header.py',
   'PYMODULE'),
  ('email.headerregistry',
   'C:\\Program Files\\Python311\\Lib\\email\\headerregistry.py',
   'PYMODULE'),
  ('email.iterators',
   'C:\\Program Files\\Python311\\Lib\\email\\iterators.py',
   'PYMODULE'),
  ('email.message',
   'C:\\Program Files\\Python311\\Lib\\email\\message.py',
   'PYMODULE'),
  ('email.parser',
   'C:\\Program Files\\Python311\\Lib\\email\\parser.py',
   'PYMODULE'),
  ('email.policy',
   'C:\\Program Files\\Python311\\Lib\\email\\policy.py',
   'PYMODULE'),
  ('email.quoprimime',
   'C:\\Program Files\\Python311\\Lib\\email\\quoprimime.py',
   'PYMODULE'),
  ('email.utils',
   'C:\\Program Files\\Python311\\Lib\\email\\utils.py',
   'PYMODULE'),
  ('fractions', 'C:\\Program Files\\Python311\\Lib\\fractions.py', 'PYMODULE'),
  ('ftplib', 'C:\\Program Files\\Python311\\Lib\\ftplib.py', 'PYMODULE'),
  ('getopt', 'C:\\Program Files\\Python311\\Lib\\getopt.py', 'PYMODULE'),
  ('getpass', 'C:\\Program Files\\Python311\\Lib\\getpass.py', 'PYMODULE'),
  ('gettext', 'C:\\Program Files\\Python311\\Lib\\gettext.py', 'PYMODULE'),
  ('gzip', 'C:\\Program Files\\Python311\\Lib\\gzip.py', 'PYMODULE'),
  ('hashlib', 'C:\\Program Files\\Python311\\Lib\\hashlib.py', 'PYMODULE'),
  ('http', 'C:\\Program Files\\Python311\\Lib\\http\\__init__.py', 'PYMODULE'),
  ('http.client',
   'C:\\Program Files\\Python311\\Lib\\http\\client.py',
   'PYMODULE'),
  ('http.cookiejar',
   'C:\\Program Files\\Python311\\Lib\\http\\cookiejar.py',
   'PYMODULE'),
  ('importlib',
   'C:\\Program Files\\Python311\\Lib\\importlib\\__init__.py',
   'PYMODULE'),
  ('importlib._abc',
   'C:\\Program Files\\Python311\\Lib\\importlib\\_abc.py',
   'PYMODULE'),
  ('importlib._bootstrap',
   'C:\\Program Files\\Python311\\Lib\\importlib\\_bootstrap.py',
   'PYMODULE'),
  ('importlib._bootstrap_external',
   'C:\\Program Files\\Python311\\Lib\\importlib\\_bootstrap_external.py',
   'PYMODULE'),
  ('importlib.abc',
   'C:\\Program Files\\Python311\\Lib\\importlib\\abc.py',
   'PYMODULE'),
  ('importlib.machinery',
   'C:\\Program Files\\Python311\\Lib\\importlib\\machinery.py',
   'PYMODULE'),
  ('importlib.metadata',
   'C:\\Program Files\\Python311\\Lib\\importlib\\metadata\\__init__.py',
   'PYMODULE'),
  ('importlib.metadata._adapters',
   'C:\\Program Files\\Python311\\Lib\\importlib\\metadata\\_adapters.py',
   'PYMODULE'),
  ('importlib.metadata._collections',
   'C:\\Program Files\\Python311\\Lib\\importlib\\metadata\\_collections.py',
   'PYMODULE'),
  ('importlib.metadata._functools',
   'C:\\Program Files\\Python311\\Lib\\importlib\\metadata\\_functools.py',
   'PYMODULE'),
  ('importlib.metadata._itertools',
   'C:\\Program Files\\Python311\\Lib\\importlib\\metadata\\_itertools.py',
   'PYMODULE'),
  ('importlib.metadata._meta',
   'C:\\Program Files\\Python311\\Lib\\importlib\\metadata\\_meta.py',
   'PYMODULE'),
  ('importlib.metadata._text',
   'C:\\Program Files\\Python311\\Lib\\importlib\\metadata\\_text.py',
   'PYMODULE'),
  ('importlib.readers',
   'C:\\Program Files\\Python311\\Lib\\importlib\\readers.py',
   'PYMODULE'),
  ('importlib.resources',
   'C:\\Program Files\\Python311\\Lib\\importlib\\resources\\__init__.py',
   'PYMODULE'),
  ('importlib.resources._adapters',
   'C:\\Program Files\\Python311\\Lib\\importlib\\resources\\_adapters.py',
   'PYMODULE'),
  ('importlib.resources._common',
   'C:\\Program Files\\Python311\\Lib\\importlib\\resources\\_common.py',
   'PYMODULE'),
  ('importlib.resources._itertools',
   'C:\\Program Files\\Python311\\Lib\\importlib\\resources\\_itertools.py',
   'PYMODULE'),
  ('importlib.resources._legacy',
   'C:\\Program Files\\Python311\\Lib\\importlib\\resources\\_legacy.py',
   'PYMODULE'),
  ('importlib.resources.abc',
   'C:\\Program Files\\Python311\\Lib\\importlib\\resources\\abc.py',
   'PYMODULE'),
  ('importlib.resources.readers',
   'C:\\Program Files\\Python311\\Lib\\importlib\\resources\\readers.py',
   'PYMODULE'),
  ('importlib.util',
   'C:\\Program Files\\Python311\\Lib\\importlib\\util.py',
   'PYMODULE'),
  ('inspect', 'C:\\Program Files\\Python311\\Lib\\inspect.py', 'PYMODULE'),
  ('logging',
   'C:\\Program Files\\Python311\\Lib\\logging\\__init__.py',
   'PYMODULE'),
  ('lzma', 'C:\\Program Files\\Python311\\Lib\\lzma.py', 'PYMODULE'),
  ('mimetypes', 'C:\\Program Files\\Python311\\Lib\\mimetypes.py', 'PYMODULE'),
  ('netrc', 'C:\\Program Files\\Python311\\Lib\\netrc.py', 'PYMODULE'),
  ('nturl2path',
   'C:\\Program Files\\Python311\\Lib\\nturl2path.py',
   'PYMODULE'),
  ('numbers', 'C:\\Program Files\\Python311\\Lib\\numbers.py', 'PYMODULE'),
  ('opcode', 'C:\\Program Files\\Python311\\Lib\\opcode.py', 'PYMODULE'),
  ('pickle', 'C:\\Program Files\\Python311\\Lib\\pickle.py', 'PYMODULE'),
  ('pkgutil', 'C:\\Program Files\\Python311\\Lib\\pkgutil.py', 'PYMODULE'),
  ('pprint', 'C:\\Program Files\\Python311\\Lib\\pprint.py', 'PYMODULE'),
  ('py_compile',
   'C:\\Program Files\\Python311\\Lib\\py_compile.py',
   'PYMODULE'),
  ('quopri', 'C:\\Program Files\\Python311\\Lib\\quopri.py', 'PYMODULE'),
  ('random', 'C:\\Program Files\\Python311\\Lib\\random.py', 'PYMODULE'),
  ('selectors', 'C:\\Program Files\\Python311\\Lib\\selectors.py', 'PYMODULE'),
  ('shlex', 'C:\\Program Files\\Python311\\Lib\\shlex.py', 'PYMODULE'),
  ('shutil', 'C:\\Program Files\\Python311\\Lib\\shutil.py', 'PYMODULE'),
  ('signal', 'C:\\Program Files\\Python311\\Lib\\signal.py', 'PYMODULE'),
  ('socket', 'C:\\Program Files\\Python311\\Lib\\socket.py', 'PYMODULE'),
  ('ssl', 'C:\\Program Files\\Python311\\Lib\\ssl.py', 'PYMODULE'),
  ('statistics',
   'C:\\Program Files\\Python311\\Lib\\statistics.py',
   'PYMODULE'),
  ('string', 'C:\\Program Files\\Python311\\Lib\\string.py', 'PYMODULE'),
  ('stringprep',
   'C:\\Program Files\\Python311\\Lib\\stringprep.py',
   'PYMODULE'),
  ('subprocess',
   'C:\\Program Files\\Python311\\Lib\\subprocess.py',
   'PYMODULE'),
  ('tarfile', 'C:\\Program Files\\Python311\\Lib\\tarfile.py', 'PYMODULE'),
  ('tempfile', 'C:\\Program Files\\Python311\\Lib\\tempfile.py', 'PYMODULE'),
  ('textwrap', 'C:\\Program Files\\Python311\\Lib\\textwrap.py', 'PYMODULE'),
  ('threading', 'C:\\Program Files\\Python311\\Lib\\threading.py', 'PYMODULE'),
  ('tracemalloc',
   'C:\\Program Files\\Python311\\Lib\\tracemalloc.py',
   'PYMODULE'),
  ('typing', 'C:\\Program Files\\Python311\\Lib\\typing.py', 'PYMODULE'),
  ('zipfile', 'C:\\Program Files\\Python311\\Lib\\zipfile.py', 'PYMODULE'),
  ('zipimport', 'C:\\Program Files\\Python311\\Lib\\zipimport.py', 'PYMODULE')])
